<?xml version="1.0" encoding="UTF-8" standalone="no"?>
<!-- Created with Inkscape (http://www.inkscape.org/) -->

<svg
   xmlns:dc="http://purl.org/dc/elements/1.1/"
   xmlns:cc="http://creativecommons.org/ns#"
   xmlns:rdf="http://www.w3.org/1999/02/22-rdf-syntax-ns#"
   xmlns:svg="http://www.w3.org/2000/svg"
   xmlns="http://www.w3.org/2000/svg"
   xmlns:sodipodi="http://sodipodi.sourceforge.net/DTD/sodipodi-0.dtd"
   xmlns:inkscape="http://www.inkscape.org/namespaces/inkscape"
   width="1052.3622"
   height="744.09448"
   id="svg2"
   version="1.1"
   inkscape:version="0.48.4 r9939"
   sodipodi:docname="icon.svg"
   inkscape:export-filename="C:\Users\Ervin\SkyDrive\Dokumendid\ludum-27\Assets\Graphics\icon.png"
   inkscape:export-xdpi="90"
   inkscape:export-ydpi="90">
  <defs
     id="defs4" />
  <sodipodi:namedview
     id="base"
     pagecolor="#ffffff"
     bordercolor="#666666"
     borderopacity="1.0"
     inkscape:pageopacity="0.0"
     inkscape:pageshadow="2"
     inkscape:zoom="1.4142136"
     inkscape:cx="267.2817"
     inkscape:cy="459.03345"
     inkscape:document-units="px"
     inkscape:current-layer="layer1"
     showgrid="false"
     inkscape:window-width="1366"
     inkscape:window-height="705"
     inkscape:window-x="-8"
     inkscape:window-y="-8"
     inkscape:window-maximized="1" />
  <metadata
     id="metadata7">
    <rdf:RDF>
      <cc:Work
         rdf:about="">
        <dc:format>image/svg+xml</dc:format>
        <dc:type
           rdf:resource="http://purl.org/dc/dcmitype/StillImage" />
        <dc:title />
      </cc:Work>
    </rdf:RDF>
  </metadata>
  <g
     inkscape:label="Layer 1"
     inkscape:groupmode="layer"
     id="layer1"
     transform="translate(0,-308.2677)">
    <path
       style="fill:#000000;fill-opacity:1;stroke:none"
       d="m 82.904299,640.74656 -42.479696,-215.32241 99.558887,-97.35369 187.60179,-5.90193 -1.43574,36.32212 -64.09742,38.02655 -124.24851,-8.46544 -21.80538,20.54246 9.55583,57.44672 100.89343,15.10152 1.61624,23.43554 -18.82977,22.00995 -71.6799,-9.08 13.52031,79.23861 -46.14544,44 z"
       id="path2985"
       inkscape:connector-curvature="0"
       sodipodi:nodetypes="cccccccccccccccc" />
    <path
       style="fill:#000000;fill-opacity:1;stroke:none"
       d="m 286.41421,466.23224 6,171 80,14 50.26089,-41.71064 -11.26089,-18.28936 -90,12 39.40334,-175.01253 -19.40334,2.01253 z"
       id="path3779"
       inkscape:connector-curvature="0"
       sodipodi:nodetypes="ccccccccc" />
    <path
       style="fill:#000000;fill-opacity:1;stroke:none"
       d="m 442,477.36218 25,160 19,-1 33,-27 L 506.09155,453.34245 483,442.36218 z"
       id="path3781"
       inkscape:connector-curvature="0"
       sodipodi:nodetypes="ccccccc" />
    <path
       style="fill:#000000;fill-opacity:1;stroke:none"
       d="m 471,368.36218 -25,27 13,13 27,-3 21,-17 z"
       id="path3785"
       inkscape:connector-curvature="0" />
    <path
       style="fill:#000000;fill-opacity:1;stroke:none"
       d="m 583.98131,420.36218 -60.98131,94 19.62617,100 100.93458,0 27.33645,-38 2.1028,-36 -27.14953,1 -49.25234,49 -18.92523,-87 33.64486,-53 35.74766,0 17.52337,-33 z"
       id="path3787"
       inkscape:connector-curvature="0"
       sodipodi:nodetypes="ccccccccccccc" />
    <path
       style="fill:#000000;fill-opacity:1;stroke:none"
       d="m 800,318.36145 -62,3 -53.85786,73.17157 30,208 41.85786,3.82843 -11,-91 58,90 59,3 12.29727,-15.0676 L 778,506.36145 838.76561,504.49919 859,484.36145 l -42,-98 -85,52 -4,-40 z m 4,114 13,31 -9.40412,11.22242 L 762,471.36145 l -1,-14 z"
       id="path3789"
       inkscape:connector-curvature="0"
       sodipodi:nodetypes="cccccccccccccccccccccc" />
    <path
       style="fill:#ffffff;fill-opacity:1;stroke:#000000;stroke-width:3;stroke-miterlimit:4;stroke-opacity:1;stroke-dasharray:none"
       d="m 154.872,848.19831 -42.47969,-215.32241 99.55889,-97.35368 187.60178,-5.90193 -1.43574,36.32212 -64.09742,38.02655 -124.2485,-8.46545 -21.80538,20.54246 9.55583,57.44672 100.89342,15.10152 1.61624,23.43554 -18.82977,22.00995 -71.67989,-9.08 13.52031,79.23861 -46.14544,44 z"
       id="path2985-1"
       inkscape:connector-curvature="0"
       sodipodi:nodetypes="cccccccccccccccc" />
    <path
       style="fill:#ffffff;fill-opacity:1;stroke:#000000;stroke-width:3;stroke-miterlimit:4;stroke-opacity:1;stroke-dasharray:none"
       d="m 333.43816,701.59306 25,160 19,-1 33,-27 -12.90845,-156.01973 -23.09155,-10.98027 z"
       id="path3781-7"
       inkscape:connector-curvature="0"
       sodipodi:nodetypes="ccccccc" />
    <path
       style="fill:#ffffff;fill-opacity:1;stroke:#000000;stroke-width:3;stroke-miterlimit:4;stroke-opacity:1;stroke-dasharray:none"
       d="m 362.43816,592.59306 -25,27 13,13 27,-3 21,-17 z"
       id="path3785-4"
       inkscape:connector-curvature="0" />
    <path
       style="fill:#ffffff;fill-opacity:1;stroke:#000000;stroke-width:2.83914447;stroke-miterlimit:4;stroke-opacity:1;stroke-dasharray:none"
       d="m 466.00026,664.03954 -54.59122,94.0447 17.56959,100.04754 90.35788,0 24.47192,-38.01807 1.88246,-36.01711 -24.3046,1.00047 -44.0913,49.0233 -16.9421,-87.04136 30.1193,-53.0252 32.00174,0 44.19691,16.46437 -26.17093,234.4025 -51.38052,-11.65722 -41.69377,43.97952 79.83329,25.27042 56.15476,-23.85995 23.11255,-313.37068 z"
       id="path3787-0"
       inkscape:connector-curvature="0"
       sodipodi:nodetypes="ccccccccccccccccccc" />
    <path
       style="fill:#ffffff;fill-opacity:1;stroke:#000000;stroke-width:3;stroke-miterlimit:4;stroke-opacity:1;stroke-dasharray:none"
       d="m 758.34169,834.78859 28.00001,-1 13.03143,-28.46493 -54.03143,-158.53507 -85,52 -8,-75 71.99999,-80 -62,3 -53.85786,73.17157 30,208 41.85786,3.82843 -12.99999,-107 64.99999,-32 z"
       id="path3789-9"
       inkscape:connector-curvature="0"
       sodipodi:nodetypes="cccccccccccccc" />
    <path
       style="fill:#ffffff;fill-opacity:1;stroke:#000000;stroke-width:2.76901817;stroke-linecap:butt;stroke-linejoin:miter;stroke-miterlimit:4;stroke-opacity:1;stroke-dasharray:none"
       d="m 772.14562,647.86246 40.93063,-5.66148 19.26148,186.82864 31.29989,2.83074 67.41518,-42.46106 0,-42.46104 -55.37679,36.79957 -12.03839,-141.53685 65.00738,0 0,-45.29178 -67.41504,16.98441 0,-65.10694 -38.52297,59.44548 -28.89221,0 z"
       id="path3869"
       inkscape:connector-curvature="0" />
    <path
       style="fill:#000000;fill-opacity:0.54497355;stroke:none"
       d="M 338.75 222.6875 L 289.96875 224.25 L 292.34375 292.15625 L 322.65625 294.25 L 338.75 222.6875 z M 340.46875 292 L 323.34375 294.28125 L 335.25 295.09375 L 340.46875 292 z "
       transform="translate(0,308.2677)"
       id="path3779-1" />
  </g>
</svg>
