<?xml version="1.0" encoding="UTF-8" standalone="no"?>
<!-- Created with Inkscape (http://www.inkscape.org/) -->

<svg
   xmlns:dc="http://purl.org/dc/elements/1.1/"
   xmlns:cc="http://creativecommons.org/ns#"
   xmlns:rdf="http://www.w3.org/1999/02/22-rdf-syntax-ns#"
   xmlns:svg="http://www.w3.org/2000/svg"
   xmlns="http://www.w3.org/2000/svg"
   xmlns:xlink="http://www.w3.org/1999/xlink"
   xmlns:sodipodi="http://sodipodi.sourceforge.net/DTD/sodipodi-0.dtd"
   xmlns:inkscape="http://www.inkscape.org/namespaces/inkscape"
   width="744.09448819"
   height="1052.3622047"
   id="svg2"
   version="1.1"
   inkscape:version="0.48.4 r9939"
   sodipodi:docname="ship2blog.svg">
  <defs
     id="defs4">
    <filter
       id="filter3033"
       inkscape:label="Air spray"
       inkscape:menu="Scatter"
       inkscape:menu-tooltip="Convert to small scattered particles with some thickness"
       width="2"
       height="2"
       y="-0.5"
       x="-0.5"
       color-interpolation-filters="sRGB">
      <feGaussianBlur
         id="feGaussianBlur3035"
         stdDeviation="0.01"
         result="result1" />
      <feBlend
         id="feBlend3037"
         in2="result1"
         result="fbSourceGraphic"
         mode="multiply" />
      <feTurbulence
         id="feTurbulence3039"
         baseFrequency="0.8"
         type="fractalNoise"
         seed="0"
         numOctaves="3"
         result="result3" />
      <feDisplacementMap
         id="feDisplacementMap3041"
         in2="result3"
         in="fbSourceGraphic"
         xChannelSelector="R"
         yChannelSelector="G"
         scale="50"
         result="result2" />
      <feMorphology
         id="feMorphology3043"
         radius="1"
         operator="dilate"
         result="result4" />
      <feBlend
         id="feBlend3045"
         in2="result2"
         mode="screen" />
    </filter>
    <filter
       id="filter3077"
       inkscape:label="Air spray"
       inkscape:menu="Scatter"
       inkscape:menu-tooltip="Convert to small scattered particles with some thickness"
       width="2"
       height="2"
       y="-0.5"
       x="-0.5"
       color-interpolation-filters="sRGB">
      <feGaussianBlur
         id="feGaussianBlur3079"
         stdDeviation="0.01"
         result="result1" />
      <feBlend
         id="feBlend3081"
         in2="result1"
         result="fbSourceGraphic"
         mode="multiply" />
      <feTurbulence
         id="feTurbulence3083"
         baseFrequency="0.8"
         type="fractalNoise"
         seed="0"
         numOctaves="3"
         result="result3" />
      <feDisplacementMap
         id="feDisplacementMap3085"
         in2="result3"
         in="fbSourceGraphic"
         xChannelSelector="R"
         yChannelSelector="G"
         scale="50"
         result="result2" />
      <feMorphology
         id="feMorphology3087"
         radius="1"
         operator="dilate"
         result="result4" />
      <feBlend
         id="feBlend3089"
         in2="result2"
         mode="screen" />
    </filter>
  </defs>
  <sodipodi:namedview
     id="base"
     pagecolor="#ffffff"
     bordercolor="#666666"
     borderopacity="1.0"
     inkscape:pageopacity="0.0"
     inkscape:pageshadow="2"
     inkscape:zoom="1.4142136"
     inkscape:cx="174.80863"
     inkscape:cy="205.70888"
     inkscape:document-units="px"
     inkscape:current-layer="layer2"
     showgrid="false"
     inkscape:window-width="1366"
     inkscape:window-height="705"
     inkscape:window-x="-8"
     inkscape:window-y="-8"
     inkscape:window-maximized="1" />
  <metadata
     id="metadata7">
    <rdf:RDF>
      <cc:Work
         rdf:about="">
        <dc:format>image/svg+xml</dc:format>
        <dc:type
           rdf:resource="http://purl.org/dc/dcmitype/StillImage" />
        <dc:title></dc:title>
      </cc:Work>
    </rdf:RDF>
  </metadata>
  <g
     inkscape:label="Layer 1"
     inkscape:groupmode="layer"
     id="layer1"
     style="display:none">
    <image
       y="286.2193"
       x="15.714287"
       id="image3001"
       xlink:href="data:image/jpeg;base64,/9j/4AAQSkZJRgABAQEAYABgAAD/2wBDAAgGBgcGBQgHBwcJCQgKDBQNDAsLDBkSEw8UHRofHh0a HBwgJC4nICIsIxwcKDcpLDAxNDQ0Hyc5PTgyPC4zNDL/2wBDAQkJCQwLDBgNDRgyIRwhMjIyMjIy MjIyMjIyMjIyMjIyMjIyMjIyMjIyMjIyMjIyMjIyMjIyMjIyMjIyMjIyMjL/wAARCAK6A1wDASIA AhEBAxEB/8QAHwAAAQUBAQEBAQEAAAAAAAAAAAECAwQFBgcICQoL/8QAtRAAAgEDAwIEAwUFBAQA AAF9AQIDAAQRBRIhMUEGE1FhByJxFDKBkaEII0KxwRVS0fAkM2JyggkKFhcYGRolJicoKSo0NTY3 ODk6Q0RFRkdISUpTVFVWV1hZWmNkZWZnaGlqc3R1dnd4eXqDhIWGh4iJipKTlJWWl5iZmqKjpKWm p6ipqrKztLW2t7i5usLDxMXGx8jJytLT1NXW19jZ2uHi4+Tl5ufo6erx8vP09fb3+Pn6/8QAHwEA AwEBAQEBAQEBAQAAAAAAAAECAwQFBgcICQoL/8QAtREAAgECBAQDBAcFBAQAAQJ3AAECAxEEBSEx BhJBUQdhcRMiMoEIFEKRobHBCSMzUvAVYnLRChYkNOEl8RcYGRomJygpKjU2Nzg5OkNERUZHSElK U1RVVldYWVpjZGVmZ2hpanN0dXZ3eHl6goOEhYaHiImKkpOUlZaXmJmaoqOkpaanqKmqsrO0tba3 uLm6wsPExcbHyMnK0tPU1dbX2Nna4uPk5ebn6Onq8vP09fb3+Pn6/9oADAMBAAIRAxEAPwDi8UoF OxS4qhiYptONNNILDDTTTjTTTHYjNMNPNMNMCNjUZNPNMPWmMYWqMtTm5pmDVAJRRRQAUUUUALT1 FNpw60APFPFR5p4NICZaeKhBqQGpESU4UwGnA0APFPFRg0oNAx+aTNJmjNACk0maSigBaSiigAoo ooAKcBQKWgQoFOApop4pALRRSE0ALSZpCaTNADs0uaZmjNIQ/NLmmZoBoAkopmaXNAh1NJpu6k3U DFJpuaTNJmnYB2aM80wmkzTGPJpM80wmkzRYCTNFMFPFKwD1qVTUYp4oAkBp4NRipBSAlU1KpqFa mWgRIDTwaYKctICVTUgNRCnigCVTUgNRLUgpgSg09TUQqRQaQEgNPBpFQ1KsdAhoGTxV+CIsAKig gLN0rVtodvagBiQlau2yH0qVYtw6Vbt4BkcUAOROOlWEB9KcIsVKkdACoKsoKYqc1Oq0APQVKBTV FSqtACgU7FKBTgKAGgU8ClxS4oAUUtIKWgAxTCKfTT0oAZ3paO9ITQAHpUbGnE0xhQA3NNLUp4qJ jQApeoZJKVmxUEjUANZzURlpGbAqu7UATGX3qNnqAuRSF6AHM/rUTPSM1RM1ACs1Ql+aUtURIzQB 5DikNONMJqixppDQTSZoHYQ0w04mmk0AMNMNSHFMNMCJhUZFTEVGwpgREU0ipSKaaYiIikxUhFNx TAYRSU/FJigBuacDRikxQA8Gng1GqmngUgJBUgqMVIKQEgp2aZ0o3UAPzS7qj3UbqAJQ1G6o91G6 iwEuaWot1KGoAkopoalzSsAtLTciloAdS0ynA0AOpwNR5ozSEP3UmabmigBc0hNIaSmMXNLuptJQ BJu560ZqPNLk0WESZo3VHupu6iwWJC1N3UzdSFqLDsPLU3NM3UbqYD80ZpmaM0AOzRmm5oFAyQGp AaiFPFAiRalFRLUy0mIcBUq0xakBpAPFPFRg1IDSAkBqQGogaevWgRMDT1qMU8UASipF61EvNWEW gB6LViOPJ6U2NPar0MfAJpCESGplgyelTRx1oQW4YZxQBXhgx2rQhj6UohxxirMMdADo09quQLim pFVmOLFADwgNSrH7UKuKlBoAREGalC0AVIq0AKoqQCgLTwKAACnYpQKXFAAKKXFFABRSjrRQAlNN LSGgBhppp5qNqAG55ozSd6axoAHNQMaczVBI/BoAjlkxVYy80Sv71TeTHegCeSTiqjyc1FJPjvVd pge9AExm5pfNqmXz0NIJD60AXC9RNJUPmH1qGSXFAE7Se9RGTmqrTe9M86gDzUmoyacTUZNUaATT c0hPNJmgAJppNBNNJpgGaaTQTTSaAAmmE0pNNzTEIaaaUmm0xiYpMU6imIbikxT6MUgGYoAp+KKY CY4pQKWlFIBwFOHFNBozQA4tSZpuaM0ALuo3U3NJmgB+6l3UzNGaAJN1O3VDmlzQBMGp2ahBp4oA kBp2aYKdSAcKUUlKBSAKKdijFADaKdtppGKAA03NKaaTQAuaTNJmm7qYx+6jdTM0maAHk03NJmkz TAdmmk0ZppNAC5ozTc0ZoAdmlpueaXNAC04U0GnCkA8U8UwU4UhEy1MtQrUqmkBIOlOFNBpwoEPW pBUS08UASipBUK1KtICUU8GoxUiDJoETxKTir0cOBVeBORWgg4oAdFFyKvRx46VHCnAq/DH0oAWK PpWnbx4FQRIfStG3T2pCHpADU0cOD0qzFGMdKmEftQBEiY6irCqKBHUirQAgSlC1IFpxSgBqiplp mCKetAEgpwFNHSlzQA8UtMDU7NAC0tJRQAtJSZpM0AKaaaXNMY0AITTCaXNRk0AITTHPFBaomagC NyRVeRzg1M7iqc7cUAQSvVOV6dLIRVOSWgBsj1UeTBp0khqq7EnrQBKZaUSe9VtxpN+KALnmcVXl l96iMxA61WlmOeKAHyS4BJqo9183BpkkhI61SYndQBzBphp9MNM0GGmmnGmmmAw9aaTTjTTTAaTT SaDTe9MQZppNBNNpgFFFFMYUUUUAFFFFABRRRQAU4Gm0UAOzRmm0tAC5ozSUUhBRRRQAUUUUAFLS U8CgAANSAGkAp4FADhTgKAKcBSAUCnYoApQKQgxRinYpcUhDMUhFPxTTQMjIphqQimEUxkZppqQi mYpjG80ZpcUmKYBmjNJRQAE00mgmkzTAUmkzTSaTNFgHZpQaZmlFAEoNSKahBqRTSYEtOFMFSCpY iRTUinmohTxSAmzTgajBpwNAiUU8VEpqQGgCUVItQg1KppASirCDFV05arca89KBFm2OWrWjj4FU 7a1PBxWvDCeBQBJBB0rQhhot4sDpV2KM+lIQJEOKvQxU2KPJ6VoQRYHIoAciYFTKtOCDpTguKAAA UoWnAU4LQAiipAtAWn0AN2Ubaf2ooAaBSmikNABmlBptLmgB4NLTAaXdQApOKbmkLZpuaAHk1Gx5 pGamM1AAxqJ3xxQz4qs70APMgqN3qIvUTPQA9nqtM1OL1Xmk4oApTt1qlIannk61RlegCORqgLZo kk61XL0ATE1G7EUgf3prNQAxnOKgdutLJIBVV3z3oAc7VWY/NSvIaiLc0COdNNNONNNNGpGaaaee tNNMCM0008000wIzTDUhpmKaEMxRjinYoxTuAzFJin4pMUxjaKdikxQAlFGKKACiiigAooooAXvR RSjrSEJRS0UAJRS4oxQAlFLilC0AIBUgFJtp4FACgU8CkA4qleapBZhgCHlA4A/rSbA0CyohZiAo HJJ4FZ51hZLyO3tozINw3vjgDPJ/+vVBI7/V3DSs0duTwOmR7Dv9a1ljtNKt8ttUYHAPLf1NQ2Tc 0AKcBTIX82JJADh1Dc9eRUwFMYgFLTsYphpCsNppFKTTc0wGkU0ink0w0xoYRTSKfTTTKGUlONNp gN70hNKTTSaAGk0maXNNJqhiGkJoJptACg08U2nCkwJFqQVGtSCpYiRafTFp4qRDxTwajFPBoAkB pwpgNPFAiRakBqIU8UASg1KgzUK1aQYGKQh0ed2K1LOPe471RhTJyK2rCPkcUAakMYUDArQgiyc4 qCKPOK07aPnpSEWoLfK5xV2K39qSAcYxVxQKAEjhAq2igCo1FTqKAHACnhQaFWpAKAGhacFpccUo FAAFpcU6igBtJzT8UmKAG00080w0AJRmkNIKAFJppJxRTGagBwakLVHvpjvQA8vUTyUwuKgeQUAP eT3qu0nPWmvJUDPQBIz0wvUZeoy9AEjPVWV8ginM/vVdz1oAqTms+Z8VduGABzWVPIPWgCF5CTUZ ams1MJoAmD+9NdqjDUySTigCKV/eqpf3p0r81XL0hD2b3qEvzxQ79qhzQBl0hp2KTFM1IyKYRUpF MIqgIyKYalIpu2mBERSYqTbSYoAjxSEVJikxTAjxSEVIaYaBDaSnU00wEpKU0mKYwoxTsUYoASil xS4pCG0tLilxQAmKXFOC04LRcCPbS7al20u2lcCILTgtSbacFoAYFqG4uYbVN0jDP90Hk0+8kMFq zqQG4C5rlJUuL252RK0jHJwOw9T6VLYmy7carcXkggtVYFjgBepq9YaGkaie+w79dhPyr9fX+VWN O0+HTLbfKyiQ/fc8AfjVPUNZaWN47XKqVILkcn6Cpb7iScnoTXOotZNJsIkmZ+N3RR24/wA96x5J XmcySuXbuWPT6VHHG8s7hFZ3LDv64HJ/GuisNISELJORJIOi/wAIqHdmqcYepd0jcdLg35zg9fTJ x+laGOKjiI249KeWrRLQi99RCaYaUmmE0wEJphNBNNJpgBNNzSE03NACk00mgmmE0xi5ppNJmkJp gBNNJoJpM0wEJppNKTTTTGJS0lKKGAopwpKUVLAkWniowaeDUiJVNPHWowaeDSESCnCowaeDQA8U 9aYoqQCgQ8VIKjAqRQTxSAmiHOaspyaZEvQYq9DEM0CLVlDu6jit22gCgcVQtI8AYFbVuh44pCLd vHmtSGPaOlQ2sYHUVoqg7UAOhFXFFQxpVhBQBIgqwopiLipwKAFUU8CkAqQCgBuKXFOxS4oAZRTj TTQAUuaSkzQAjU0mnMaizQApppNBNMLUAIzVC78052qs7UAPMnrUbuD3qF5OahaQ0ASPJjvUDSkm opJfeo/MzQBI0lRl6YWphbFAEjPULPTHk5qB5sDNAEjSe9QyTALVZ7jnrVaa4G080AR3l12BrKeX cetPuZc5xWc8vPWkBc35pC+BVRZfekeYetAFhpcCq7z571C83vUBc0CHvJnvUZbHOaaTSZoACc03 NBpM0BcpEU0ipKTFBqRYppFTbaQrTAhK00rUxWm7adwIdtJtqbbSFadwIdtNIqYioyKYERFRkVKR TGFMCOkNONNxTAMUuKUCnBaBDcUYp4WnBaLgR7aXbUm2jFICMLTgKdigCgAAp2KKUUDACngUAU4C kAm2nBaUCnAUAY+ty7Io4wQeSxHfjp/WsvS7tLPzpCCztwqA/qfSrGuTb7qQAghAEUj9f1JrJgGe gyWOAAM5rOTsKK5palqe6mu33SvkdQg6D8KktLGe8OUG2PvIw4/D1q9Y6P8Adluh34i65+tbSqFV QAAB0A7VKj3LlUSVoGTaW8cX7qIHcyRyMxPJ+Y/4VrKcis7y2jkcg/8ALsqDHqN3+NaKHKj6VZiS KcUpamUmapFLYcWppNJmmk0xgTTCaUmmE0wAmmk0E0wmgAJppNITTc0xik0ZpuaKYC0lFFACUhpa Q0wENJS0GkAoNKDTKWkBKDTwaiFSqKQDxT1GaQDipAKQhQtSAUgBqVVpAKq1IBQoqQCkITAqeBQT zT4rcuM1ct7T5hxxQIkggyucc1djhO4DFSQwgVeggBYcUhFuxtsgcVuwW4I6VUtItqitW3GKAJoo SBwKsopFPiXK5xUwj5zigBY19qsolMRatIoxQAKtShaQCpAKAFUU+kFOoAKSlpKAENJSmkoAaetN JpTTTQA1mxUJfmpHHBqpIcHrQBKX96jZ/Wo99Ru/FADmcY61Xkk96Y7n1qFmJoARpBnrUbPxwajf g1EWNABI/vUBkNEjVVeXHegCz5w9ahkuMd6qtNz1qJnyetAFgz56mqtxdY4BqJ5cCqM8pNICV7nP eq8s+R1qs0nqagllAXOaAEuJveqRfNDuWOTUeaAH7zSbzTM0maBDi2abmkzSZoACaTNJmkzQApNN zSE03NAiPFJin4oxQa3GYpMU/FGPagZHik21JikxxQBGVppFSGmHrTQETCoyKkamGqQERFRsKkPW mmqAiIoxTjSUCCnDrTaAaAJBTqjBpwNADqKKKBhRRSigAFOAoApwFIBQKcBQBTgKADFO/L8aKq6h J5VhM2M/Lt6+vGf1pAcneymRmdgMuxY47E1t6NZxw2UcxUNK43Fjzj0xXPXbc4B6CutsojDYwo3V UAP5VJmWBn1pruchEbDHvj7o9aHcIOmWJwo9TSxoVGTyzHJNAFSRBHqFugLbWjclS2ecr/jVq3bf Aj/3lBqC9kjilt2Zdzu+xcdgeSf0qeAjy9q/dUlR+HFAEtR5pLmXyYGcAFuignGSeAPzowRweveq iNC5ppNLTCaooCaaTQTTCaAAmmE0E00mmAhpKKKYwooooAKKKKAEptOpKYhpooNNp2C4uacOaQDd UiLSaC45VqZRTVWp1XipAVFqUJQq8VMq0gGKlTotAWpVWpECrViKHceBTY071oW8ftSEOgi2rjFX 7aLvUSpk9K1LOEY5FIQqQkjgVdtLZgwJqaKMCrsKj0oAtQRjaOKvRR81XhXirsYxQBbiXipwKhj4 FTocmgCZEqdVwKbH0qUUAAFPFJinAUAOFL2popaACikzRmgBaaaM0xmoAQmmE0O1V3loAkkfiqcp pXkOKrPJQAF8GmSS/LUEkmO9VJJyOM0ATmb5sZpC/eqXnAmnmYbetADpZMZqm83NRXF0A1UnuB1z QBbkl461UeXNQSXGe9QGbFAE7PUbSAd6qyXGBVOS796ALcs46Zqo8nBqm9wWbrSGXK0gGTTHPWoD IT1NErZNRE0AKTSE00mmlqAHZpM0wtRmgQ8mkzTd1JmkApNNzRmm5oAUmm5oJpmaYE2KKdQRSNBm KSnYoxRYBhFIacaaaYEZ6VG1SGmNVIZEaYaeajaqEMNMNPNMNMBhpuaU000wDNGabSigB4NOFNFO FIB4paQU6gYmM08ClAp4FIBAKcFpwFOC0ANAp2KeFpdtIBmOKyNffEMMW37zbs/T/wDXW1jNcxrk mdRZcY8tAM569/60mJ7GFMDLMEUZZ2wPcmu2LCNemSeAB1P0ri7cNJqMAQZbzAcfjXXqfmOzDyY5 bsKRApBWWOSRgCQVx2Hf+lP80txEu73PA/OkWIZy53MDkHHA/CpgaAM2/b7NazXEuHaIhlwMdRtH 8zV6EgF1AwQf1Iz/AFqveorxzeaMxhFY8Z+6ST/KiwkL2ccrLhmRSxx1OOaALTgFlckbEJPDf596 aNxXLdT+noKU7m2oxPHJz/L8/wCVLJ600NDCaYTSk800mrKEJphNKTTCaYCE02g0UxhRRRQAUUUU AFFFFAhKQ0tFMQw0hFOIpyJTAVFxUypSKtTouKAEVanRaVVBFSqmDUsBVX2qZVoRalValgASpFSn KvFSonPFJiFjiJwK07aHjBpbeIFRxV+KIelIBqQgVet4ypGKRIvarMSnPApCLUa4FW4V5qBFOBV6 BOmaQFqECrsYGKqRqaspkUAWlBqxGpHNQRdqtL0oAlQkVOpqFBUw6UAPFOxTR1p4oAKQ0403NACU mcUpphNAATTGNKahZsUANdqqsc1JI+aru2KAGyHFVXf3qR3Jqu9AEM8mBWdI5J61anPNUpXAoAaX x1qrLe7eM0yefHSsmeRi2c0AWZ7ndzmqMl0fWmNISME1Rmc9jQBdF36mg3AbvWWZCB1ponI70AaM j5HWqchx3qP7SSMVG8uaAEZ8Gm+ZUZbNNzQA5myaTNNzSZoAUmmk0ZppNABSE0maQmkA7NGaZmkz QIeTSE0zNITSAcTTM0E03NAF2iiig0CkNKabmmIQ0w040000AxulRmnmmGqQXIz1qM1IetRmmAxu lRmpDUZpgMNMIp55oxTAZinYp2KAKBiAU8CgU4CkAAVIFpAKlUUhiBakC0qrUoWkA0LTwtOVaeFp AMC0bak20baVwGBa4W+m8+eeUE4dyRnqBngV2mpS/ZtNuJckYQgEdieB/OuCnOE+vrQSxdKQS6tE CCVyS2O3BrsAMcYAFcv4dUnUXb0jOfbkV09BI6lFIKUUAV7tDKrQdpInU/jj/wCvUGnuv2RVyPLU swOeibjt/TFXJUdtoRgCDyT2H/68Vztxq0dlbC0s282UYUygHAxwMDv0oA2LvUbfT4S87fvG5EQP zH0//XWIt9qWpXXmpIYYlztUDIA/rUUGmz3En2i7LMx5IJ+b8f8ACteLy0UIoxjsO1ZTqW2Oujhu bWexOs7dHA/Cn+Yp6H8DUI+dlVAWZjhQoySewArqtG8HNKBPqmUQji2VuT/vEfyH/wBainOozbEU 6MV2ZzRNMNem3egaZeLte0RWC7VeMbCOMDp1x75rn77wPIqtJYXO/HIimGDjH94cZz7V0qSOFM5G irl5pV9p5xdWskYzt3kZUnGcBhwe/eqdUAUUUUDCiil70AJQaWkpiCigUtAgVc81KFpEHFTKtACK tTKKFTipVSgB8a1YVM1Gi4q1GtSwGqhBqyqZ7U5I81OkZHWkAxE7EVPFH83SnrFmrMcVICSJT2rS t06cVVhjrVtoxgcUhD0T2qeJADnFPWL2qSOOkBJEozV6MDFVY1xVtB0oEWYxmrSICKhhUVcUCiwC ouDVkVDipY+lAEyGpQahFOzSAnFPFQK2BT9/vQBITTSabvzTS2KAHFqaTTN9G7igBHaqsrnNSyNV SRz1oACxNQSNigyVDI9ADWcVA74pXfFVpHoAimYGsi6lKnrWhM9Y94+TigCB5N3eqc5xzUjHFULi bBIzQIjkkx0NU5JOaJJCec1XJJ5oAcze9NzTTSZoGKTTd3vSE00mgBSaM0zNGaAFzSZpCaaTQA4m mmkzSZoAUmmk0hNJmgBc0E03NJnmkAuaM00mkzSEOzTc0meaM0AaFBoNNpmgUhpaaaCRKaelONNN UAw0w080xulNARnrTDTz1phpgRGmGpDTSKYEeKXFOxSUDExS0UtABinqKaBUiigY5RUqikUVIq1L Acq1IooUVIBUsLigUuKBThSAAKNtOApwFFwOf8UTCOziiBYGR88cAgdj+Yrjbk9vauk8U3PmahHC GysScrjox/8ArYrl7g5amSzX8NY3XJI/u4P510PvWD4dA8iU99+D+QreGFoEOqG6u4LOHzJ3Cr2H c/QVn6jrcVmCkWJZvQHhT71ixWt3q0vn3MjbP75/oKTaW5UYuTsia71G71iU29shSHPT192NXbTS YrePk7pSMbz2+lW7e3itohHEm1R1PrUyh3cJGjO5+6ijJP0Fc8qjloj0aOHhTXNLcrhQV44YEAj0 +lXLDSr3VW/cxbolYK0rj5VPse+K6Gw8Iui/bNQUPt+9aqfvLj+Ijv7D9a7GFIxHGIABFtGwKMAD sMVcaXcyq4rpD7zntJ0Oz05UkgkZrggb5ZBuDY67SOVFa8c9xGqtIm9TjDp8yn15H9RVw20b8leT jJHGcHvTRZSRtujkJY9SxIPXqSOv0xW5xNt6sIbqKRQwYc9+351ZU56d6osoJBuIMNxlvuueePmH DH2pAjxnEUozkApLhTn0yPlY0AaYOOorEvfCek3rFvINu5OS0B2549Og/AVcF60RxcRtGx7sMZ/H oaspOkhwp59D1ouBwt/4Jvrfa1pIt0vG4fcYfgTgjp3/AArnZ7ae1k8u4glhkIztkUqfyrt/EHjK DTt1vY7bi66Mc/JH9fU15xc3lze3LXFzK8kzdWY9Paq5h3LdLVNbmReCN3161Os6sPQ+hqk0FySg UfSlqgClHWkpV60ASrUyVEoqZBSAmSrCKDUC1Yj60ATpHUyLimx1cjQEUgFiWrkce6okhPBFXIEI PIpASRw4wCKtRwH0qWGMP9auxQEUgK8cHNaVtBTlt+MgVeggO3NIQ1YsCpFj9qmVMcYqURZ6UgK6 x81YROak8sAdKAQtNATxLipwcdTVJZsVJ5hbGKYFwOCeDVhXGKz1JzU6saliLofinA1XU8VIDSAm zRmo91Ju5oAl301nphcetRlx2oAfupDJiomkxTPMBoAc7n1qtK9Okf0qu3PWgBpaoHc1I1QPQBGz etQSMAKkdsZqjcS7RQBDPLisq6kFOuZyMnNZM91nkmgQtxcBF61kyTF2xRPMZG61FnAz3pALIR0H 41HmimmgApDRmmmgYGmE040w0AGaTNBpDQAhNNJpTTTTAM03NFIaQATSZpKQmgB2abmkzSE0ALmj NMzRmgQ7NFNzTqQGhRRRTKCmmjNFMBDTTTzTTTAjNNNPIphFMCMiozUpFMIpgRkU3FSEU3FMBmKT FOIpMUANxSgUuM08LQAgFSqKRVqVVpAKoqVRTQKlAqWAqinimgU4UhjqUCkxT1FIYoFOApAKr6jc fZdOuJg21lQ7TjOGPA/XFIDhdTuftWo3E2/cpc7Tjqvb9MVkSnLVbc8E1UcY5NUQW9P1BrQ7cgLn g4/nUl7rE9yfJgJVT3Xq30rPgglupNkSE+p7D610Flp8VoMnDSd2I/lUymom1KjKo/IqWOkYIluu TnIj6/nWwMKAAAABwBQivJIsUSNJIfuooyT+FdTpPhXDLNqOHIwVgU8dP4j3rG0pvU7HKnQVluYu maRd6qwMK7IQRuncfL17f3q7rSdFtdMT9whaQj5pX+8fx7D8qvQQKiqqKqqowoAwAPQCp93zeXEA 8g654Vfqa3jBR2OOpVlUeo7csSgscZ6AdSfSo7eGSDftizEzFhGG5T6dufTPFTxQ7W3sxZz1Y/yA 7CrA44HFUZEKSRltm7Dk8K3BPrgd/wAKfSsiSIVkUMp6hhnNRmBl/wBVKV5Pyt8w/wAR+BoAkx+N VzaR9EzHxjCdMZ5GP50/zHjBMkTDH8SfOPy61ka34osNHjKs6z3JJAgiYEg/7X90fXn8qALFzIdN tmmllRIFUZ5AXr02nt9OTXB6z4l+2brewU20GMF0ypcZ/u5wo/WsjVddvtYuPNu5eAPkjUYRfoP8 agtYZ7yZYbeB55D0VF3H60hERRu2G9fX8qWG3kuZRDFE0kh6IoJP5V12n+AZ3TztRuFtYl5KKQxA 7nPQfrXQWEMNtbuLGzhuLQHloxvLHPAVjy5/2s4646UAcTJ4P1aO1WZYUckEmKNwXXHqP8KxzEyM UZSGB5B4IPvXaeINfit1NnaSSQ3H3Zdx3BOfug9SfXsK48hgM43fQ5oAj3FOhNKLoj7y59xTGcdB xz+Va+l+G5791afdHEew+8f8KabQFWLdPE8saO0aHDOFOAfc09K9G0zS4tNgMcYAz2AwAOwA/mT1 pt14f027i2m2WI9nhAUjp6cH8RVqXcZwC4qdRW5eeFnhc/ZrqN/vNtk+Ugduen4nFZMtrPakCaF0 znaSOGHqD0P1FUmmMVBVmNarpnNWo6ALEQq7EpqtEKvRDikBahHStKCMN1FU4F6VpW6dye1ICxDb kNkVrWsO4DIrDufEGl6OzR3NzunVSTBGC75AyAR0Untkj61yOr/FW/Vtlhphs41fJnkIkdlDDHGM LkAg5z97g8VLYj1pLYBeRVhIwq4Ar59g1vS76bzL4GS6bAeS5TzH44+Zzn07mum07Vbi2g36RqTx RFSEWJg8QyeyNlBz6DPvUcwHrpT2pOhrB8PeKo9Wl+xXKJBeAAptbKTjHJXPIPXKnt3Iya6FlGao BNwNRSGnHg1G/NNAIKnjOKgAqVKTYFlTUwNQpUmRSEWFanZqFKkzQA7fSFjTO9IzYpoBHc1GJDnr THeot+KbGTu+aZuqIvUbSYqRE5NMc1Esuaa8goAczcVWlcAdaJJgBWZd3B7GgCaWdQOtZN3cjB5q OW4Pc1mXkxKHBoAgursMSAay5ZcnrSSOQ3WoGakICaSkzQaADNNNLTc0ALTSaDTSaACkozSUAIab TjSUANNNNOxTaAGmkNONNNADaaadSGgBlITTjTT1oAbS0UUALS0lLSA0aSjNJVFBRRTTTADTSaXN NJoAQ0hozSZpgIRTCKeTTCaYDCKSnGkNADKTFOoApgIBUgFIBTwKQCgU9RSAU8UmA5akFMFPpAOp wptLSGPFSAVGpqQGkMdWH4nuRDpfl5XMrgEHrgc5H4gfnWwSMc9O9cx4kZLm6jibkRLkjpyev8hS QmcztLDOOP50R2YuZCWYqq9TU05AGAMAdB6Vc0u0nuh5VtGZJXO7aOw9Sewok2loXSjFy97Ykhjj t4sIoVR3/wATWvpuj3eo4cDyoc8yOOv0HetbTfDUNriW9QyzA5XZyiD+ZrooQSQFlVyBnawwQPTs RUxp9WbVMT0hoiLTNJttPTZbx5c9ZG5dvx7VsIixLukIUA1WDtGuDGQx685A/r+lWoTGTuVxJIBn 3X6L1FanKTKskny4MSf+PH/4n+dToFRAigBR0UdBUIc524x7U8OB9fSgCcGlzUO7ufyoDFuB0NAE u6o7m7gsrdp7mVYok5ZmOMVz2t+L7LSN0EWLm7AxsU8Kf9o/0FedaprF7rE/m3ku4D7sa8Ig9AOl AHU6948lnD2uk5ij5U3Dffb3Ufw/jz9K4mQtK5dyWdiSWJyST70n1qe1tJ725S3tomkmc4VVHNIQ lq0UV1HJcQmeFWy0W8puHpkciu1i8b6bp+nJFpmjm3lI+ZDjYD67h8zfiBVzRPBNrYxC91l43ZQG 8knEad/mPRu3t9azfFOv6XfBraysYJGGFN2U2kADgLjB/Pj2oAtaPZ6j4tk+36pcsdPR8CGPhWI7 YHQDPXrV/wATeJ49Hh/s+w2i6AA+UDbCvp9favPILqe0m822mlhlAwHicqeevIqCSR3dpGcsxOW3 c5/GgCV5y7lmJLZJLHqffNJb2k17OsFojtKeip/CPX2/GtPRPDN3qzxu+63tScCQrktj+6Op+vSv QNL0O30+Dyo4lReMgHO8jux/i/QCgDntE8LyWzRzXAhuZN3DMTtiHcrx859+B6V1628ETlo0GcAF jySB0ye//wCupsAdPxpDTGMdgiliQFAySTxUPmPN9zMaf3yPmP0B6fU/lUcqTGQtIvmKD8m0gY+o P88/QCnRyK743ZY87TwceuDzQBYjVY0IRcZOSepJ9T61VaO6RT5sCT72+bycLkdBkE4Y/WrKMM8H NTqR/k0Ac/8A2VZX+426+XIBhkC7Cv1XGO3bFVZdImgPy4cDAweGP0HQ/ga3ZdPmK7YrlmjO7dHO N2Qf9rqMZNRv5trl3MqR7jkkeYoAz+Kj/wCtTuBhrGVbaylWHYjBH4VfhQHHFaAjNwWVLfEI+46s CrDnt2/Cq0qW8cjRkNNIOsEQzj0z/wDXNFwuKlysfCIZnA6KeAfc9u3Tn2qrdpe3qsk0xWE8GKLK qRz1PVuDznjpxxV7z1jADxGFQM/MBgD6jgdu9WEVXGSAaTYjln0pUXYiBVHYDiqcun8bSufYiu6+ xrJ2H4VBLpCsOlAHndzoVtcbsptY5wR2JPX61Qk0G9tnaa0mbo2drEORwcE/h0Feh3GlpEpZiFUd STgfnWXP5NrCJp90cZOFaRCu7jPTr60WGcxDrWqWD/6bEzbXBEi5jKNgEbSM5I616v4Z+JGk6naQ W+pXottSyyuJk2KwGSGLDKrkepHOeMYrzG+8RI6eXaxBuOJJB04IyB9Ky7W2N+yxC081VIz5YCDG D1/h59xSEfSSyxTwRzQSJLFIoeORCCrKRkEEdc1CZMHmvBhYa5pKl9PvZxkoziF9vmMCcDH3cA+o rS0j4i61pmpf8TqR7u0I2lNqps+blg2AXIAPHTnrxTGe1qQanUVxulePvD2pBQt+trKwLeVd/umw DjqePfg1vaj4m0fRNi6jepFK+MRKrSPg5wxVQSF4I3YxSEba8U6uI/4WZo/2vyntdRSDeVFz5Kuh xnB2oxkweMfL3Ge9dDpPiHTdaid9Ou0m8s4kTBWSPkgbkbDL0OMgZouBtBsCgyelVxKDxmjf70AW A/rSO4xVcyYqMzdqoCRmFRFqRpKi30gHs1QO9K71Ez+tIBwfFNeT3qs82KqS3XvQBLcXKrkE1lXV 2GXANQ3UpZs5rOnk96AJJZ/eqFzPjioZbnDEZqpNNu5zQA13ySajzTN2aXNADs0ZptFIBaaaXNJQ AlIaDSUgEpM80UUCEooooASkNKaSgBpppp1NNADTTTTjTDQA00h60ppKAEoopDQAuaKQGjNAGl3o pM0masoDSZozTc0AGaQmgmmk0wDNITQTTSaAAmm5oJpCaYATTTQTRTAAOadikp1IBcU5RTacKAHC njpTBThSAeKd2pgpwpDHilpoNOzUgPBpd1R5ooGPJrjbuUzTSSn+NieTnHNdLqU/k2MhH3nGxfx/ +tmuTmYKuBQhMozsc9a9Q0KxSy0i2RIgjtGrSccliMnP4k15lbxfatQt4P8AnpKqfmcV7EigcAdu BTJHIuOTzU3lJKu1kVh/tAU1VqwgFMYJbkfckdfYncP1/pStG2PniSUZ/h4Ptwcj9akBxTi4VcsQ AOpJ6UARBwvSZ4e5WUcfTJyPyNS5kXG6IMMctGSPpgHI/WjzkdAUIZW6MOQa53WvEtnpCvFABJef 8842IAPqxH8qANm81Kz0+Bp7u4ESgdHBBY+g9T9K4PXPGt3qG6CxDW1s2QWz+8ce57fhWBf393qd y093KZXPrwAPQAcCl03TbjVLxba3Q7j99sEhB6nHakIq5ya29D8NXmvJI9vJBGkfBLv37DAyR+Vd zD4c0yw0eSP7FFqIRGZyE3TOxHQEcj8q4KCwvrvVZDp9jPatG/3VLfufQFjyDQBrWXgHVJbwx3Rj t7dTzKGDbv8AdA5/PH9K6uS60TwZZtDCmZ3UEopzJJ7sew/+visf7b4o0GMtcGK/tIyFaQMH29zy PmH1asnXPENlqtsoTSYorpjl5ieR9CME/U0xlTWfEd9rch85/Lt8/LDGflA9/WsctTS1amkaBd6u wkH7q2zzMwyD7KOrGkIzoYZrudILeNpJXOFVBkmu20PwdHHtnvgk0gxhDzHGc9P9s+3T1rc0rRLX S4PLij27h8+Tl5P949h7CtUEYwABjgAdqBhHGiDIySRyx6n6/wCAqTNMz2pRTAKSlNJQAhpjxpIu 11Vh6EZp9QzTRwxl5HVVHcmgBhgZT+6kPT7r/MPz6/rTGkaMYljI4zlfmH+P6UxHvLxlMCGKBuQ5 I3EZH1xxkjjtzitG20uFgTcym5IOdr4wCB0wOO2ec/WgCiLlyqNFgRPg+azbYyPl6HvkNxgYO01I YWt0R7p3vJBztUeXCuM/MwJPGMZyTyAQOK2jj7q9O/pUJsYtpMTNC2OqdD6/LyP0oEVhbz3QDXE+ 1COIoMqCPdvvH8MVbhsbeOIJEiqg6BRgCq7wTRMx8sPkk74vlJOMZKk4P4k/SljnJfarb27owKSY A64OM8/QUATNaIG+U8+1MGmIVO3MWcnMfHJ6nHTP4VOkoBClSrZAwwxyRnA9e/T0pbi+trOA3F1c RwQjqzsB+Hv+FAyMW88I+UpIoyePlI6YAHIPv0qrf30VlBvuJobYB8MbglQR1O0fxn0wf5VzGsfE hE3Q6NBuPT7RMOPqq/4/lXGkav4ovvmE99cHqDyFH8lHT0oA3tS8cx5xp8DPL0+03QBIP+yvQdB/ UVz0UOqeILwlRNdzZ+ZjyF+p6KK7XR/hqka+dqswZ8HEEZOwHHG48E/QY+tdSum/Y7fyrZPJjRQq fZgAAByflIIHOemTzSEcXZeCLSz2SapN50xPywxZwT07ct1FbVvppiTYIlihVQEXjd3yTjj8q2Il t13eXgOcbt2d/OcA55/A0pj3jgfjTGYctn1wMelZ9zpsc6MssKsGGDx2znH510zwgdsmqz2+ecUA cNeeFoJBIYC0btuJAPDMfXvjr0rFn0nUdOLGI7owG5UcBRznb/8AXr017X261n3axW/D/ePRRSsB wKa5LExjuLY7h2H3gPUjgD86spqUM7C4tpXinjyqSxMUkjJHO1hgjr2461f1SCO8Uo0KBevI7+9c fcRTWFz3HPDMeMegA/z+dS4oLntngnxzc6veHStU8o3Pl7oLlcJ5wUDcrLn7/Vvl4I3cLtNd8snY 18si9bCyJI8bqQ8bqSrKw6MDwQQeRX0Z4W1o+IfDVjqjJskmjPmKBgB1Yq2OTxuBxz0xmmn3Bm08 nFVpJsHrRLJiqMkue9UIti5B4JpxmHrWQ02D1pGuSB1pAaT3AB61GZgR1rHkuSW60q3YxjNAFqeU 8ms2WcZOTUd3e4HBrHkvTzzQBdubtR3rKmugx61XnuCckmqRcnvQBJNJluDUJY9zSbsdTTN1AEga lzUWaUNQBLmlzUQanZpAPzSE03NGaAHZpCaaTSZpALSGjNFIAoNBptABSUtNNACE0hNFIaYDTTTS npTaAENJSmkpiGmkNOpDSGNooooA0M0maaTSZrQY7dSZppNJmgB2aQmm5pM0AKTSZozTSaYATTaM 0lMApe1JS0ALTqbS0gHU4UzNOFADxTs1HmnA0hjwaeDUYNKDSAkpwNR5pc0gJM0lNpc0AY+tzZaK ME8AsR256f1rnrg1o3swluJJM5BPH0HArJnJJoJNHwpb/afElsNu5Y9zn2wOP1xXqY4rgfAEBa9v Lg/wRhB/wI5/9lrvQQDTGVdZvW0/R7ieM4kC4Q+hPFc3p/ja6hAS8hS4UfxL8jdfbj9KseNbrbZ2 9sCcu5c49B/+uuMGaAPTbXxVpVyoCSlJScCKXCkn69P1rTO1V8+7kTCDcBn5E/P/AD6V5FtDdR+V SmSfyBB58hhByImYlQfXFFxHS674qEzPFpmYVbhrgZV3+mP61yg3MSXOeeCetKBg5Jyf0FLnLAZH Jx1pAWLGxn1K8jtLVN0jn1wAO5J9K9OtNPg8LaKYrRHmu5Ttyi5aRz7dgOT7d/WjwxpVhpemmWC4 iuJHH764Rww47A+grM1PxjaQzSPbD7TNgxxY+4q9znrzQBftotXMrX2p3UPlKCRbYUCMepfHXrnH HvVDUvG0NoPLsfNmcEgtOQyZ9c8k/mK5O+1e+1Rv9KnJTPEa8IOvb6GqTNgde9AE+o6rd6pJ5l3M Zf7oU/Kv0HaqADPIsce5mY4VMZJPoKngspr+fyreJnc8Er2z6mu80Xw/DpCKgCz6i4y8hHyoO+Pb +tAGVpHg94VW61ODe2AY7cNgZ/2q7CIQxKoRk8zG0bhsx7KDxj6U9UWKFYYWZVQn5hjJPcnrSFZG XBWORf8Avk/4fpTGScjhgc+9G/sKg+WP7plg7AEfL+mR+Yp6+ay7lEcykYDI2P5ZH6UATA07diqx mTH8aA/316/iMinK5YZTDL6qcj86AJ92KOtRbwvU805A7tjaQMDBoAUuD05+lOS0aZlLoMKcgtzz x0H51agtQBkj3q2qgcAUxDI4EQggAsOjHtx2qSSJJgQ6jpjI4I+hHIpwWngUgKrW8q5MUgfr8sg7 9uR+PY01pjF/rkaMc8t93Geu7p374q8OKXGaAK6sOpwaSaGCaP8Afohj6kOAQMdDzVbVJ9O0q1e7 uZhaqM4MZwWJOeF6Mfwz1rzHXfFt5ru+CNjb2gJIVf4xnjcfp2oGa/iHxnHatJa6NIZjyGlkPmJz 1255b8Tj2ri86rrt4qHz7uYD5edwUew/hH04rT0Hwzda5OuHENryTM3cZx8o716ppWi2Wj2ghs4g vTc55Zz6k0hHFaL4AiO2fU7pbiMHmK1bIHc7m6/gtd7YRWdnb+RZQRwRpjMargjI4yOufrzTJ7WG RyxXbIeNyHa35jBqtILpMEsk4Byvmjay9uGA446cUxmuJATxz70x3A+91xWXHfiI4d3g7fvxwBjs 49T6k/SphOWChlYZxggblPGSc9cfUCgB87I2N6K205GR0OOtZ00otgpE5RchQjDd0zwvfP51MfPu B+6Uwx/89JBz+C9vx/I1D9mgs/3kj/ORy7nLH6D09hx7UASWpaSJXmTYx/hJB/WpLiaCBf3jAHHC 9T+VZU9+zDbACg6Fj1P+FVCScsSST1JoET3d+8mRENi+vc/4VkyLuJJ5z1zVxiDUD49KAM2eEEGs bUbJJ4in3W7HHT0roZelZt0OpHX+dIDhZ4WhlKP1zx/Ez+/sK9o+EDBPCt7n/n/bp/1yjryrWdnl mQ/LJngDqa9i8Aaauj+CLEbU8y6X7XIUYkMXAKnnodmwHHpQB1E8gOeaz5HFJPPz1qk9yOQTQBI7 jrmqzXGTjNMkmBHBrPabD9aAL7PnvULSAd8VXNwAvWqc10Ap5oAlvJwc81ltJzTZJy3eoC5xigAk fcaiJpaYxoARjTc0hPNJmgB2aXNMzQDQBJmnBqjzRmgCTdS5qMGlzQA/NJmmZo3UgH5ozTM0ZoGP zSZppNGaQDqQ03NGaAA0hpCaM0CEpppaKAGUlONJTAbSGlpKAG0U6kpgWc0hNNJpuasY7NGabmig B2aTNJmkzQApNITRmkpgFFFFABRRRQAuaM0lFADwadmowadmkMfmlBpmacDSYx4NOzUYNOBpAPFK DTRTqQDqgvZvIspZPmztwNvXJ4FTVmaxLxHCMH+M5H5f1oEzBkMjD5m2Z7LyfzqjKWGQJHx6bzV6 Y4FZ8pOaCT0DwLbmLRHmI/1spIPqBx/MGuoHPasvw9bfZtBs4un7oMfq3P8AWtcfKM9MDPNMZwHi y48/XGjzkQoE/Hqf51igVJdXBurya4JP7yQvg9smowaQiQYFIWpm49KTk0AKTSqmeaFSpcBFye1A ANwyikruHzY7j/IFSBQOaYAQMn7x5ahn4oAczjpWpo+g3OrZmc+RZpy8zL1HcKO9YjP6/rW9Y+ML 6IRpdRx3MEf3V2hDwOOnHH0oA7OysoNOhRbe32swxFGeWJ9WP949/QVoIggVkB3SNy7Dv7D2rG03 xDZXGXaQxXUmRtl4CD2PTmthAMBhznnimMkVfU1LUYPr19KUE0AOzUE4t41Mr/IQMblyG56AEc8m oru78iPCRvNM/wDq4k6t9fQdMntVaRDFMLp1NzelCIYVPyp67c9O2WPt6gUAX2WXoJd46YkXOPx4 NRmMNIMwlGPAdGHA+vBpsNu3nLPKC85BT5T8qKccAfgOep+mANSC35y3J96AILe2dlVpCxOOjYyP xrRigCjpT1jCjmn9aYgAz0p4FKBTsUgEAp2KAKHdIo2kdgqKMsxOAB65oGKBiud8SeL7LQEaFQLi +I4hVuF9Cx7fzrnvEvj8sWstEY56NdY6/wC4P61xNlZXep3ywW0TXF1Ickdcc8kmgB+pane6zefa tQmaRifkUDAX2Udq67wz4Bku1jvNZQxW+Mpa5wzf73p/Wui8M+CLbRtl3e7bnUAPvHlIv90d/r+V dUT3J/OkIiFvBHbrAkMYhQYVAowAPQVC1rg/uZGX2PzDk89ef1qdnHrUZmUUxlVzKgPmxkj1Q7h1 /P8ASotyyLlWVvcdKtNcgVTmMUrZKYb++vB/OgBjgdwPx6VSMCxcwO8BPP7vofqp4/SnTtNGuUIl AGdp4PvyP8Kh80MocdDzQIiuNUu7fajlMN92RV7+mOxqk0zyMSzFj3Jq3OFmjZHHynr7ehrLy8ch hc5YdDj7w9aAJt3PvRyetNUgDrxQXFAAxHYVDIyqMswGTgZPU0+WRYonlkOERSzHHQCuW1nUXmXa yqkYIntJ1OQ+Ox9/b6UAbszgcGsq/nSKFpJGwo/WpBdrPZpcqcKy7jnt61y+r373EL4yFxhQPyzQ Blahefa2kYj5ScKK+irSIabo9nYeZ5n2aBId+MbtqgZx+FeD6DoxumWe4izbocqD/G3uO4613sGt ahZLHFHIZVJ4jk5AGPXqAOKQHYyyj1rPmfnINUI9cWQAXETQsR97qD7+341L9oV1yrqwIzkUAI8p A61WaXJ5NSSHIqpJQArynsaryNnrQzEUwtkZoAjJqNjTmINRsaADdgVEWoY0wmgAJozTM0uaAHZo zTc0uaYD80ZpmaXNADs0uaZmjNAD80mabmjNADs0uaZmjNIB2aM00mkzQA/NJmm5oFIBaDRmkoGL mkoooASkpaQigQnekpaXA25DDOcFe4wB1/OmAykp2KKYCmkpaKsYmaXNJRQAtJRRQAUUUUAFFFFA BRRRQAUtFFIYCnCkooAWlzSUoqRjhTxTBTxQMcKdTRThSEOGc8Vz+oS77yUjJwdoz2x/9etu4l8i 2klOPlHGR37frXMyHC/hQSyrOfeqkURubqKBT80jhB+JxU07VY8PxCbXrXIyEbefwGR+uKBHqsYR FCLgKBgD0FVddu/smg3UikBimxee7cf1qJbr3rB8W3pa1t7YH7zlz744/rTGcpmlzSYpwWkIUA08 LQo5qRaAFA4oJBbP8K9Pc0OxVcL948Cpbaxurs7La3lkA4JVTgfU9KAIS3NMJJ6V0dp4M1K4wZ2i t17hm3Nj1wOP1rUh8HWMbiKSeWaRR+9YHaqjsMdc/j/KgDhdhYnJ+UdT61sWGg39xtkW0k2kZTcN oI9cmu7sNLsIcSxWsUdvHwmF5kPue4rQJaRtzYAPpTA5az8KzEZmmjT12gsR/KugsdMiseIXlb/e fjP0HFXVGR6LSkgdKBiAelVZblmm+zwIXkx8zkfInTr74IOOv0600zNecQO8cXeYDlvTbkYP15Hp 1yGqC8YitC0cIGfNXBLZ5+XdkNnOST6+pOABI18nzI4Haa4LDzJZTnbnJGenT+6PUdM5q1a2YQsR uLN953OWb/AcngcelS21oFUKoKqBkD+ZJ65q6HihUnJO04IVSxB9MCgQ+KDaBxVlQFHFRRyrJkxs CoOOOfzqboMmgBwGacKaD6/lTwPX8qAFHWnrz0pAM9a5jxL41tNEDW1ttub7H3AfkT/eP9KBm3q2 sWWi2Zub2XYv8KjlnPoBXlPiHxXfeIZGiz9nsQeIgevux7n9Kyb6/u9VvTc3srTTOcAD9AB2Fdh4 b8ByXIju9ZVooOqWo4Zv949vp1NAjB8PeGb7XpR5CmG0B/eXLDj6D1P+TXrGj6PYaDaC3sYQpI+e RuXc+pNW444reJYYI1jjQYVVGAB7CkZ6Bj2kPrUTSH1pjPUTPQA5n96jZvemF6ieQDkmgQ5nqB5f SopJix68VCXoAmZ896ozEQOZMkRMfmA/hPr/AI1KXpjODwfy9aAImbNQXUQnjGCA68qT2Pofamkm J/LONh+4f6f5/pRvoAqJIWBBG1lOGH901LuVFyxAAGSTTLmPnzoxlgMMB/EKwteeSSO3Zmb7AXHn bBz7E0ANvb6ebULhxPtt7QKRCg3ecD/Tn9aj0+BblGtmhaTT51MkR6+Sw6jPtz/kmq8dhIupvbWN 0AyR74ZAc/ITyp/PI/8Ar1enkTTLL+zrcksAfMc+9AGPrNzDZ2q2lqW8uPPOfvmq2k6Y+pyKhB8v 70jjnApJbOS/uI7eJGdmcYUd69C0rR49OtVhQ7j1Zj/EaQFaKxhtbbARUjjHAHYZ/wDr1Na2DNma QfM/Rf7o7CrzoPPUSjZCgyCehb3PYD3q4ACobIII4NMZmTWUzpiGVY2z1KbvwqDyJ7eRi9uWUkkS 2vHp1U5z39a3Qo9KUqSpAJXI4I6igDJt9l3GWgkWZVwDgbWHHoeCfypktu4baOvTa3ynPoM9fwzU 0unXaR+UJRdQFsskhKvjPQEfe49abJPJaxt85QlhuS4BeM9yFIGcAd8YoEZsoZGKMCGHUHqKgLHp W7PParGqSCQwlRmWNPMiB5GB1xz6YqB9JhnRZYGOxsENH8wx34PI/M0gMQt3qMtVuXTrmNiAhkx/ c6/ivUfiKosaAAmmE0E1GTQAuaXNNzRmmMdmjNNzRmgB2aM03NLmmIcDS5pmaXNAD80ZpmaM0AOz Rmm5ozSAdmjNNzRmgBc0uaSikAtLTaUUhi0UdqKAEopaSgCOV/LTOMsThR6mlVSqgEk+pPc1BGwu bpnwdkXyr7n1z/nrVmmISkpcUYoADRRRVlBRRRTASilooASilxSUCCiiigApaKKQBS0UUDClooqR hThSU4UDFpwptOFADhTxTBTqQijq822BYgeXbnjqB/kVhS5wQMn2q3qMz3F6+zConybiDk468fXN Z00SH743/wC/z/8AqoIZUnO04bj61qeGF/0yaYEEKmMjtk//AFqx5ERSdqKPoK3NDXyrN5d7Lvfo Mcgf5NAHRrMc5zWDrUvnagQT8sYCj+dTm+h3dXyP9sj+VY0nmXDl1Q/O3U/X1oAk2Cl2461oW9gJ Wy8gXB6KM/rWxaWFpEwIiVm9W5oAwLWwurx8W8Dv7gYH59K37HwdPLg3dykQP8CDcfz6fzrdt+nF WpWcqsKEhpTgn+6o6n/PqKYzP0/w/pkRkm8nzlJ2xmbDcZ5OOnX2rehRUUAKqgDgAYA/CoUx/CMK BgfQUstwIUz1boqj+I9hQBJPMUxHEMysOM9FHcmoY0EuYQW8lDulcnlif6n9KhG9nMauPOk+aSTs o56fToKn3rgRRAhF6Z7+pNAE7PvI4wqjCKOwp6jufwFRpgDPU+tOYsUOwBmxwGOAT7mgBZZ44IzJ K6oi9WY4Aqs+Z0aW4YxWw58tgF3DuX9vb8+uAiqyyLLcuGk6IqKdqcevr1GTj2Azyp/fspZCZFBG EbIVscjPTPbJ9T60AJu+1cSqwhI3CPGGcD+8OuDkcfn1xV9IjtwcdOC30644/wAimQw4IViq56BR uYjGM+3J681qQWiKQ7DcwIOW9Rxkdh+FMRUMqKm995Q87tpKYIx1Axj8aniYMiupVl/hYHI/CrwG 3jB4qrPZ25ZnTMMrdWiO3P17H8RSAQwxyPkr+8P8anBxnPUc9qFFwhypWdfVvlYeuOx7elQEXUQ+ ZBOnrGArfip4P5/hUkV4kp2Iw3gcqeGX6g80DLMVzHuEZ3JKf4X4JOMnB6H8KllnhtYXnuJEjjQb mZjgAVi6z4g07R7Mm82yGRSEgA3F/wAD2ryfW/FsusTkTlhb7spAjEonPXnr/LrjFAHWeJPH814z Wmjlo4DlWnI+d/8Ad/uiuRsLC51K8W3s4mnnY5J7D3J/qa0NC8OT62qzKWhsCfnnZCc/T1/lXqmj 6bp2kWaxaeihGGS+7cXPqT3pCM7w34OtNEVbm523N/18wj5U9lB/ma6Rnz3qMvjrUZkpjJC9RtJU RkqMuaAJGeoWamNIFGSf/r1TmuuwoETyzqvfmqjzFjyagZyep5ppkoAkL0wvUJkphkoAnL0wsTUY JPJNBegBsoDqVbv6dariQqxVvvD9fepnbv8AyqnO+9giZ83g/Qe9MCffzVC6hQK6uN0Eow4P8JPe rnP+JFUb+9S1i2nDOw4X29TQBQWKDRbV1hfdcSHgsOcdv0rMcs3JOSx6nrTVkM2HYk7vWuo8NaOZ XTUpypjUnyk67j0yf8/ypAXfD2ifYbf7RL/x8TqDjb9wddvr9a1p5o7ZVBBZ34RFHLfSrPHTrVKw jDySSyNuutxV8nlB2AHpQMeBOVyYIwfQyn/4mmIEM2zbJbzHnjo307H8aunCqWYhVA5J6D61STdf XEc43JbxNlCc5kPrj0oAnxPGMlVkGO3ykf0P6UqzJu2ZKuTja/BP09fwqwOKRkWRSrAFSOQRmgBm eeePrSMVdCHAZSMEEdfWhrYr/qpCg/un5l/LqPwIqJ2lTmSM/wC9H8w/Lr/OgCI6fb+cJIi0DFtz CLA385wfarTOkMYYjjOFRRyx9B+tRedGkZlZwy5wNhyWPYAetSwROX8+cASEYVAciMeg9/U0AEMT B/Olx5pGOOiD0H+eaZc2FteAfaIlYjoeh/MVapjkKuSaAOeuvC4IzbTkEAfJLzz9RXLySRxXDwPI gkRtpAYda6HxH4jNlG1vaH/SXHX+6D3NcEqEuXY7nJySepNIRvUorIinlhGFcgeh5qymoA8SJj3F MC9SGmJPHL9xweM49KfTQCZpc0nBopgOBoptGaAHZozTc0maAH5ozTc0ZoAfmkzSZpc0gFzS5ptK KQC04U2lFIBc0tNzSikMWqOoXJjQQpzI49O3t71allWGJpH+6o5rLsS15qDzyDO0Z7Yz2/r+VAGl bwC3gWMYyPvY7mpaWigBMUYp2KMUCGUneiitCgooooAKKKKACiiigAooooAKWjvRQAUtJS0hhSik opDFpaTNGaAH0uaYDTs0APzSM4jjZz0UZOKBVPVH22mwEZdsY749v0pCZlMzMCzHLE5JqnO2OlW3 OFrPnNBBUkP41sxxvBp0IJ+Urux65rGCmSVUAyWIArrpLbKqDEp2rgZb/wCtQBgsJnk3LLtj/uhT /KrqQSSSRqBtUtkZ9qvrAe0cantzVmC2cyK7EHAIAC460rDuLaQHAHX1PrWvbwn0pttbdOK1IYAB 0qgFhj2jJ7U6Ab1a4Iz5nAIH3VHQf1qwqhRUTW8YO6MmJj3TjP1HQ0AOaUKuSQABk56AVV3sf3xU ln+WKPvz/U/ypzxuSGnkUxodxwME+me1OTeB9pkUhnGEU/wr6/WgB6/ukMQYF2OZX/pUqDaABUKD GOPoKsRjmgCZeaJpFiheR3WNVBy79F+tDyRwwvJK4SNBlmJwAPrXE+IfECaj/oduB9mB+aQjJbHo KBDr3xfI9+TaxLLagkfvgfnBPPHTHHGR3rW0XxQNSu0tZLKcyuRtELZHHftgdOpIrnbDwzd6jdKo j+xwu5RTO3zk9SAOCTjJ6AV6doug2eh2xjtlbcxy0jcu31P8ulAFy0tvKjG5UUnJIUcAk5q124x+ NA+lFAFS4nkdmgtceZnDykcR+3+97dup9DB5M8OBDP56jqs55P0YD+YNTSWUJZngLW7sckxYwx9W U/KfxFQsbu2yzQrMP78TBfzDHj65P0oGSx3ahhFKjwyk4AccH6MMg/TOfaud8W+JbLS4jbIkdxfk fKp/5Y+5Pr9Kytd8WPZ7ltJI5L5gV8zGVhH+x+Xfr7ADPANK7ykylzI7ZJJzuJ96Qh1xLcXVw880 zTSucsz8k11Ph3wTbCRLrW4miU4MVu+QrH/abp+FbPhnwvBpkMerauy+YSPKQ/Ns9MAdW/lzXZLL FcxbkZJIj02kMp/GiwwilWJVRFCqoAVVGAB2wKRliLFlykhH3kOMnHfsfxqnJZopzbSND/sjlCf9 09PwxULSXEHM0JKjq8WWH4jqP1+tMC+0k8eMgTL6jAYdOx4Pf/Cmi6RztB2kfwng/lVRLoOu5XV1 z95TkCntIki4kAbvz29/1oAsl8dagluFTqefT0rOnu/sxyju0WNpYnJT/EVXaYvz0BPbvQItS3Jc 8H8aiyepqEPigsaAFZ+2aiaT0NI7Z71ETQA4yUqnPOaiPNKpwaAJgaCc0mQeajLM5KKf95h29hQA jsSxRAC3cnotNVFj4Qk88k9SfU0/5VG1Rgd6zNR1H7MpijIMxH/fNAEl9fpZx84MhHyr6e5rmZrh 5S0rliSCST3omYsQW3MWbk4zmpLSxnvHFvChZ2BLHsB3JoAu6BpR1O75Ci3hwZM9x/dGOecV3VxN 9jt1EUa8sscadAPQcdqZYWltZ2iw2gBjX7xH3ifVqmkCTxlHHy+x59qBgkNwV/eXb7v9hFAB9sg1 DcIYSstyBNGDgybdsienI6ipE+1R8AxzDsXJQ/iRnP5U2W3nuwsc7RpCDlo4yTu+pOKAJjYQtjeH kwcgPIzD9TVgIAAAMAdAO1AOBgce1Ln3oANtLiijBoAMUEYpe1FAEXkxGXzDGpcdGK81JilxQSFH P5etADSQMfXtXNa/4mt7KOSIIyyA7VZxuDnGeO2PXmrWva1Fp1u+Wy5ypCnBJ/ug/wAz2rze5uJL 24aabG5uAB0A9B7UhDXeWWVpnbeXO5iO/wCFPUqfw9KhEW07o2K/T/DpU8ImnmWIQNNI3CiMEsT7 Ac/lQA7bkZFRMpzjFdfonhdJ0W5muIpWzxb7xyeOrcg/QV0d3BaywiLUbOPYikDzUA2j/ZYcD8DQ B5QRzn9anjvZ4uN25QOjVJeG3e8mNumyEufLUnoueKrmPNAGjFqEb/fGw/pVlWVxlWBHqKyEjx61 raPpkuo30cEQOCcuw42r3p3AdRXb3PhOxmGbd5LdsYHO4depB5/WsC98M6jasxji8+MchouSef7v XNMDHptPZGRijgqwOCp4we9NpgJQDS0UALmikpaAFpRSUUgHiimg06kAUvak+lU9Ru/s1u2D856Y 7UgKeqXaSP5fmDah4APUmtGxt/s1qqH7xO5vqax9GtWuLk3UgyiE45zlvT8K6GkAtFFFAxaWkFLS ERUUUVoWFFFFABRRRQAUUUUxBRRRQAtFFFIYUtFFABRRRQFwooopALmnCminAUDHCsrUZN90EHRB jp3NahIAJJGAMnNYG8uzOR8zHJxSJZHMTis6Y1amuIuR5qZ9Nwqi80bnG8/98mgkn0uPztVt1PZt x/DmuvZS1c/4ZhEl9LICGEceM4IwSff8a6kRZbp/9agCCOLJHFaFvbcjIpYYBn1960YYgBTGPhhA HSrSgDtTRgClLUAKT70wmioXzK/kIccZkb+6P8aAGgLcOS4zAh4B/jb/AAqSKJ0OYpGT1XOV/KpF QYCouEUYUVZSPA6UAQYK/wCug4674f8AA1MQkcRlLZTHAxgn25qZsxRGTY7nsqDJP+ffiudvtGvd QZr3WLwWtqpGIEfcFGcYJ6Z9+fyoEZ+tXljeyq2oXhMCHMdpaAMeejFvu59u1VrPTNT1uZRptidP smGDIxPIIwfmPLZ9Bx0471p6JoWmahfZVJLiKI4Kr9wEZ++/8ROeiccDk9a9BggSGJUVFVVAChRg AAdAO1AGdofh+10W3UJ+8udu17hx87D0HovoB/8Ar16TPFRTXAiYIi75m+6g/mT2Hv8Ah1OKAJSQ BkmojKW6dO1QPHdYDErNgDKr8hB9s5B/H8zVeS8hgjJmfywo5DjDH6Dv+GaBl5pkjVnZwqKOWJrz 7xZ4uM+6xsHIj6Mw7/X/ADx9Thc/xP4qk1GZrW1bbbJwcHOf8/l6ep5y1tZ724S3gQySueAP1JPQ D1zSEEUUtzcLHEryTSNhVXkk16L4Z8KLZwfa5UEs5U/MGx2+7Gen1f8AAetT+F/C8FlD50o8xmHz SYP7wegB6J/6F9OvVmTsvAHA9BQBlWxha4jNyFjuVG2KBl2rGPRB0bp1Ge3TgCae3imcyKGjlxgy xnax+vr9DVuSOOaMpKiuhH3WUEH8DVJ7BDlfNm8kjmEvkH2yfmx7Zx7Uxle0klmkcAiW3XhZsbd3 PQDofqMD2NXCcUpwgAGMAYAHaoJJBQIguLaCVt5G2Tp5iHa3596z1aQMYJjmQchhwJB6/Ud6tyze hqtIq3Ee0nDA5Vx1U+ooAY67l5AI9PWqYJtpBGx+Q/db+77H+lWkkY7kkAWZfvgd/ce1RyorKQw+ U0ANLce1M8w4wOlQLIwfy5ByPun+8P8AGpM9/wAqAA02gkk0oHc0AFLRxUWTNwCRGOrev0oAcHZ2 Kofk/iYd/pUhKqu1RgfzpOANoGB2ArJ1LU9mYIG+bozjt7CncB9/qqw74oTulHG4dFrAZizEkkkn JJPWgmnQwy3EywwoXkc4VR3pASWdnPf3S28C5c9SeijuT7V3VhpUemW+y1cb2x5pZciQj19B6VFo +kRaVDkkPcuPnf8AoPatPrxigCBthf8AeAwyDo4PH4Ht+NPLOn+tXevZ0GD/AIGptoIweRUQhZeI XwD/AMs2GVP4dvwoGODbxmNtyjrjqv1FSqQACfwqq3lbgX3QP0DA8fg3+NOYyIcSjcvZ14P5dDQB ZDBun407IHAqFGDLmMhlHp1H1HanhgPcmgCUcf1pc1Hux1pQc/1oAfmlpucH+lGewP1oAdniqGq6 nBpltJJKVyoy2RnHsB3J7f4Cpb28SyiZ3kVCF3MzdI19T7+grzDWdWfVLnjcLdCdiseT/tH3NAFX UNQl1K7aWRBGg+4ikkKPx5zUCjPTp6ilXOKcFwcjqPb+nekI1tF8P3utSfuU2QD70zD5R9PWvRdN 0PTtFs34Vjt/eyy45Hf2ArmdL8eLBEsN/Yjy1GBJa4BGP9k8Vha54nu9ado9xitgflhU/kSe9MZ2 1teW+u6pLHZBjDbrh52/iJPCr3x14Jxx04qDxLe3Wj6JKplZ/O/dLvIPXryB6eyge+c1peFtLGl6 FCjDE0372T2J7fgMVxnj3Uhda0toh+S2TB92bk/pigDl90Z6gqT/AHe9PXd/CQ30/wAKi4Pt9KcF IOQeccUhFqEl3VAuXbgAdT+Fem+HtNi02z2nabh8GQ9x6Cuc8K6QQq315CkisP3McwwD7+/t1711 RhjyQryW7D+GUFlH49R+OKYzT74p2fQ1mh7q3ALRlkPO+P5x/jU0N/G65znHUrzigCW7sbW/j8u6 gWQds9Rzng9R0rCvPBtvIGe0uXjb5jskG4H0GRyP1roUkDDIYH3pwbNAHnV5oWpWJYy2zsgz88fz Lgd+Og+tZ1esg5qjfaLYaiWee3HmkEeYpw2fUnv+OadxHmlFdVfeDHRWexuN+ORHKMHGPXoT+Fc/ dadeWBxc2zxgHG4jKk4zwenr3pgVqKKKQC0optLQAkkgijZ26CuauJX1G9VEAJZsCrmrX2T5SHI5 xz+tSaJZbENzIvzNxHu7D1/GpA1LWBba2jhUg7Rgn1Pc1NTRTqAAdacOtNp1IYtFFFIRHSYpaK0L ExRS0UAJRRRQAUUtFMBB1paKKQhRRSUUwCilopAJS0lFAxaKSloAUU4UlKOtICtqMrRWZCDLSHYP T3z+FYhiDDMh3+3Qfl/jV/U5N9wkYIOxcnHXJ9fyFVGHFIlsqytjoB/hVGQ5NW5jVJzQI6zwjbj7 BPMRy8m36gD/AOvXRrH6iqPh+AQaHagjllLn8TkfpitMCmMfEo9KtodoqBeKlX3NAEwbilpgpXdY kMjnCqOTQAkrlAFQbpHOEX1qSGERR7AdzE5d/wC8aZbKSvnuQXcfLt52L6Zq0gAGeKAHIuBTLu/s 9Mt/PvJgi9h1ZvoO5qVg4jYooZwDtUtjJ7AntXmettqL6k76krLMeApHyhewX2+lAjqD4l1nVmaP RdOKruK+e/zcj3OFBx2Oaki8G3+pTCbWtSZzk/u0JYgHsCeF/AYql4H0y/N59vVzDZkFWyP9b7Ae g9f/AK9ejIoHJHzY/KgBllZwWNtHbwRiOKMYVR2/+v61aznmowc+tVpbpnkMFucckSTdk9QPVv0H fpigCSa5IfyIBumI5JHyp7n/AA7+w5D4YlhUgEsxOWdjyx9T/QdqjhRYowiDCg/iT9epPrRc3kFl ayXN1IsUMYyxP+evpQMsNJHHG0srqkajczMcADuTXl3i7xkdWD2dplbENyxHzykdx6Cqfifxdca2 /kxhobLd8kOeX92/zxWdo2iXmt3wgtk3MPvyH7kY9z/nNAEWl6Te6veJaWcW6RuoJ4ReOSew9/8A 61ekaN4at9FUrcjDHALP0lP16AZxhc89T0AG9oWh2mgWP2e2GXbBllI5cj19uuB2/HNaTHIIx+dA FMyMPlwQalRCBlu/SqsMaNcLJbDy7Vc/KPuycYG0dAPcdasSSehFAA7gVXd/WkeT3qtJJ70CFkkH rVOSbryaSWX3rH1HUlt1ZQ6oQMs7dIx7+p9B3oAmurxgwhhG6ZhkA9EHqa57UPEs+j3rWxhMwAB8 x2x1HPbpmtDSb61vLZnty24N+83/AHifU1z/AIvhxeQTEcPGVP4H/wCvQBu6VrB11ZGCLBcwYKEH OQex9q0VmEi5IwRwynqp9K4jwtc/ZdX8stgSoUGfXr/SuynQswnh/wBaBhl7OPSgB0qB15OCOhHY 1AkjElHGJB1x0PvTllDoGU5U9M9vY0PGXGVO1x90/wBDQA8D3pxwBkn86iWUFGL4UrwwPakAMvzM CIx0Hr9aYAMz9ciP/wBCqbp0wMdPakJx7cVh6lqRfdBAfl/icd/pSAff6q2WitzxjDP/AIVjk0Ui q0jBFBZmOAAMk+1AD4YZbiZYYULyOcKo7122laVFpMOSQ9y4+dx29h7UzSNOj0ixM1wAtw4/eMOS PRRVozShWmliUR9ThsMo7fWgCypLnNTdKjiwUBHcZ6UssywoGbJJOFVerHsB/n37UDCabysKq75W +6mcfifQDuf5kgUvmG3gXzWMkhOAFGCzegH+e+e5pu5Io/PlVEbaN2Mn6AHqeTx6ntzTY127rmY4 bb/HgCNfTrj6+p9sYALBYeWDPsXOA2W4z0xn8qb5Dxf6lgoz/q2Hy/8A1qjgDTlbqUEEjMUZH3Ae 5/2sdfTt6m0CMcCgCt+7LZcGCXs2f5N/jT2eRDiVC3o6gA/l0P4VMQGGGAIPY1H5TxqfJYbe8b8q f6igBEG/LId4HX1H1FPDDj9B61CfLZgGBgm7Eng/Rv6Gns0iHEybhj76cN+XQ0ASbjnGfqabPP8A ZkwCvmlcjcflQf3mpnnxxqPJImmOdiD+H3Ydq4PxLrxnZrG2lLKT++lz/rD6D2oAreItcOoztBA5 a1Vssx6yt/ePt6CsMUg9P1p4pCHAU8cU3pzXTeFPDh1a5+1XK/6FEeQf+WhHb6ev/wBegC94T8KR 3kJvtSiJhdcRRHI3A/xHvj0qv4s8Mado8Aure7eNnf5LdvmJOex6jA9fzrvb++t9LsHuJyFijHAH f0AryLWNWuNY1B7qc4zwiDoi9gKYzX03xzqtkqxXOy9hAwBLw4Hs3+Oa5u4uHu7qW4mz5krl2z0y TzikHWnBc0hDQO9b/hfQTrF+GlU/ZYiDIT39FrM07S59Svo7W2X53PJzwo7k16tptkmj2EdpHEfL QcyRjJY9yR1/LNAF7YgQIqjYBgADjFRtaJ/yzOzHQYyo+gPT8MVLFIkoJR1f1A6j8Oop+RTGUTBJ CxMYK88tEevuQf67qjdVnJ86JJWA+8mVkUfz/PFaXSmSRRy/fQHB4PcfjQBmrEdwMFyGYnhJhtYn 2YcH9aebqW2O24jZFHUt0/76HH51aktS2dr7gf4ZPmz+PX881CPOt8AF0HofnT/P4LQBNHdRtyTg +/8AjU4YHnPHrWY0cLDeYzCW6SW7Ag++3ofwzQsdwmTBIkyg8qh2sPqp/wDrUAamap6lqMOmafNd zH5Y1yB3Y9gKhS/IIjkBDejcE/gev4VwninWxq9+LWI/6JbHpn78nc/h0/P1qZS5VdlU4OclFGUb yaWV5XCKXYt5artVc9gKkS5U8EFaq4ormVWadz1nhKTjaxoKwblSD9KrX1ysEJ5wxHX0FUZZmDbU YhvUVn31y00hUvnH3iO5rohNyWqPNr0VSdk7i20LahehGJVcZbHZRXUKFVQqgBQMAD0qjplr9mtB kYkf5m46eg/LFXaswH0opmadmiwDgacKjzTgamwD6WmA0uaQDaSlorQsSilooASilooEJRS0UAJR RRQAUUUZpgFFGaKAClpKKAFopKWkAvalpKgvJBHaSH1G0DOM5oAymkM9xJKc/MeMjt2pkrY6U5Bh ahlNSSVJT1qptLyBB1Y4FWJTUmkQ+frVqh6eYGP4c/0oA9EhQQwRwr91FCj8BUw9qiBPc1Kgz06U ATIKmVc9qYi1YRaYxVWo4gLiTzXA8lD+7B/iPc0rqbiQwA4jX/WMP5CrHAGOERRxzwBQBGLVQS8b NE3coeD9R0NNF9FG3lvKss2GwsKkk49hmkdIb2Rg0ZZIsHdI21EI7kcZ49focc0+3AvVAt4Sljgs iIm0T+pJ6AH0J54+lA1YnsLs3qGRYXjhzgF/vE9+Pr70uo6LZausK3SFvKYEbTjI7qT6HvV2K1nZ QFVIxt+Utzj2Kj+jVO9lOPnhuBu7pIgKH+o/M0EsWGOOFFVFVVUAKFGAo7Cpwd3HaqTTmD5bqNoD n72d0Z/4F2/GrQfCg8cjII7/AI0ASsoeNkyQCMEg4I+hqotvJbxKkYEkYAChcIwGB24B/SrAcDr1 7VS1fWrTRLM3F2/zHIRAfmc+goGR32sWWm2r3N1MECjiMjDk9gF6nOK8u8Q+JbvXbgB/lgU5igB4 H+0fU/5HWo9b1q71+88+6OEXiKJfuxj29/U1Y8OeFrvXLlpEGy1Q/vZHOCT/AHVPPNAEGgeHrrXL zZD8sYI82dhwg/x9B/SvYdK0y00iyW1tIwqDqx6se5J9ar2MFtp8EdnbxfZgo4ifgk9znox+hq40 oRWLnaqjLEnGBQBOzgcsQFHUnoKqlzeDJXba46HrL/8AY/z+nVmGuSHlBWEHKxkYLf7Tf0H4nrgP eT0P40APeTsKrPJTXk//AF1WklxzQA6SX3qnJNnvSSS571x3ifUNWs7gGGby7RxhSijOe4J9aQjf ubp3kNvAR5n8b9Qg/wAa5bxRZTJFFNGzNbL99T2b+8ay7HXLu2vFmmlkmQ8OrtnI/wAa2YfFNrc7 orqBo42yuc7gR7imBzum6hJp14s8Z46Ov94eldF4ikjvtFhu4SGVXBB9ARyD+OK57UrSO2nzbyiW 3c/IynOPY+4otr0xWlxaSEmGVcgejDkEflSAbp7iPUYGYfLvwfoa7yOUrIYnOWHQ/wB4etedZxz6 V6Assc1jHO52goHB/ukgU0BJKnlsZ4wSp/1ijv8A7Q96kV12Ag5UjgjuPaktnZ4VdlKsR0qGRRbM XUfuWOWA/gPqPamBMUViJHHI/wA804uAu5iAAMkntUDSqgLO6gAdSeBWNf6gbljHHkQjv3Y0AOvt SedtkJKxDvnBb61n9uKM803r+f8A+qkAqq0jqiKWZjgKBkk9q7HR9Ij0uL7VdlTcEc/9Mx6D3p2h 6Itggnnw10R06iMeg961pIklXa4z6YPSgCquZ38+bCog+VT/AAj1PvT40N2yyyAiFT8iH+L/AGjT xalmUSTO8YOQp7/U1a7UDADPX86jjhxK0rne5yAcYCr6D+vr+QDY4mkkE04AYZ2R8HZ6k+px/gO5 KKjXDiSRSsanKRngk/3m/oO3U84wALHG8sgmnGGHKR5zs9z23ev5DuS2L/Tdkx/1HDRJ/e9GP9B+ J5wAf8fnAP8Aovf/AKa//Y/z+nW1j0oAUev50o5pASeKTPYUAPzSF/SmM4HA6UIhdSzEKg6segFA C438YDZ6g0zzEtmMKEyyEf6nd8q/U9qYZ3m/d2gKR9Gm7t9B2rC13XodHtWt7P57uQfezkJ7k9zQ BS8W6+qD7BaHy7kjEzqwO0f3Qa4nnuP8aHZ3dmc7yxJJPU0insv/AHyaQiWGN5NxiVn2gs20fdA6 k1reHodLmv8AGrTeXCB8qnIDMT3I6V0ngTTo0gkvpWMU0rbIWyRlR6Hp1xx7U3xvBZWix5tYhfSv nzoxsOB1LAcE89aAJpPAtrcTxTWV6RauQWHDZX/ZYV1yLbadZBV2w20CevCqO9eS6Tfanbz+XpUk 3mN/yyjG7dxz8vPbPaurtPG8Mm601uyC5O1yE3L1/iQ8j9aYzA8TeIJNavcKStpF/q0Pf3NYOa6D xOmgJ5L6QxLyjewRvkVeex5De3b0rnc0hEgqWNGkdURSzMQFAGck1ADxXfeDNA8uNdUuk+c8wqR0 H96gDa8N6Guj2W5wGupBmRvT2FboOP61Hu6e9KDTGOkhilwXUFh0YcEfQimGOdD8jiUf3ZOv4MP6 5qQGnZoAgM6r/rQ0Xu4+X8x0/HFSjoDnIPINO9sZqE28aZaItCTyShwCfcdD+VAEuaTINVpZ5YCi siys5woT5W/Ecj+X0p3mz8f6JIfpIvH60AOkhjYlsFXbqyHBP19aryWrDkBXx0wNpH0xx+QFTGR8 82lx+BT/ABqG4vUtoJJpoJ444xuZiqkAfgaAMHxTq8lhpn2YPvlufkUSjlF7kH/6561wHlooCgsh H94ZzV/VNTfV9RkvJUcKfliTbnag6f8A16p/LjClxn/YP8q5qs7uyPSwtLljzPdkfzoM4JX1U5FR vcARnBAP1p7EDn5v+Agiqk0pmuNuf3cY+ckdT6VEY8zsbVKqpxuMlfyoyxPzt92naTame5858+XG QTnu3+efyqo++6uNsYLMxwqiultoEtoViQDjqfU+prrirHkSk5O7JxS03NLmrJFpc03NFIB2admm UuaTAeDS5pgNLmkIdRRRVGgUUUUAFFFFAgpKKKACkzRR+NMAzRSUUALRSUUALmiko/GgBc0uabRm gBwNZ2pSFmjiHYbyMflWhmsO5nQ3TuTjJ4A5JxxxSYmOJwuKrSmneZNJGHRUVSMgvkk/gKrzGY9W i/BD/jUiK8rda1vCkQfVHlIz5cZwfQnH/wBesVvNBz5g4/2BXVeEYibe4nbBLOEBAx0H/wBegDpl GetWY0NRRrnFXI1xTGPRBjmnSuwKxR/65/u+3uaGkEKbmznOAB1J7CgLLBC7iPzLlxyAcADsoNAE scYSMQpzzlie57mmyq0kpjLCOGM/O+R7Hr2OeB6Yz1xUSDUJMIDBblgMBcyOD9eBj8K0rTSgsnnX E81xJwQHb5AcYyFGBRcdu421shcRhGiaK1ibCREY34P3j3xnp69T1rZSLHUU6NAOTyTUooJECgU7 FGRTWYAZJ4oAU4Iw2NvfPSqDWKI5a0kNux5KAZQ/Ven5VM02c8/T2+tYniLxLBoVrtGJbyQfu4if /Hm9vagY3WfEMXh+AtexZmYZiEL5D/geVH515bqOqXOrXr3d1JvdugX7qgdFUelNvb251G6e5uZW llc8sT+g9BXQeGvBj6vi7u99vZ9tow0p/wAPf/HNIRH4Z8LS6y4uLndFYq3XvKfRf8a9Tto4bO3S C3jWOJBhVUcCqH76xVY3gVoVXar26/dUeqdh9KsQ3CTpuidXT1U9Pr6Uxl1tsy7HUNH3DAEGqr2s QmRvMkdE5WJmyqn+8M8/rx+FKZQF4PH86haXPJPBoAmeXP8AMkVXeT0PFRvL3zx/OoHl75oEPkl4 /wA8VUeQscdqRnLmonIIIzQBU1DU7XT0DXMoXd90YyT9BWXc6rp2paZdBSZgqZaIDDfUfpXL+IJ5 J9auN5OEcoozwAKoQTyW06TRNtdDkUgI+9Ojj82RUBAJIHPTmtZNIbVZBNYbVicZdSf9U3dfp6fj WVLE8MrRyKVdSQRQB2MeiWf9lm2B3h8MZe5PY1yN3ayWdzJDKMMp69iOxrodD1YyL5E75ZRkk9SP X/H8/Wretacl9ZmQFVljGVY9CPSgDjMgde3Wuv8ADxN5psTSnKQkqqep9T+BrkDBKZdjxMpzwhGC a7jQbJ7PTQsow8jbyPTgcfpTQGoAScfyokaOOJmkICAck0jSpChaQhVA5Jrn76+a7fHKwg/Kp7+5 oAqXN0ZpGjXcIY2wiE9sDrUPPU00nMjH3/X/ACKXOaAF6/8A1q6vQdBEO27vEzL1SNudnufel0HQ fJ23l4n73rHE38Huff8AlXRUAJmgCjFDsFUsQSAM4AyT+FAxGKopZ2CqBkk9AO9Nhkkl3OyhFP3A Rhvqf8PT64EjqrLhgGGQeR6Hg1EHWZniCB4sFXY8gnuuO/v+XrgAIpHnkDxnbAvQ45k9x6L/AD+g 5Us1wzRRErEpxJIvBJ/uqf5n8OvIR5Hkk8mA7WH33/uew9W/l1PbNhFVEVEUKoAAUdhQA6kOScUF scDrTGYIMd6AOc8VXNxYy2k9rK8bfMrFTweh5FVLHxkVxHfQ9f8AlrF/Vf8AD8qt+MIy+lRuB8yS 9fTINcKz44T5m9TQB6la6jYXEImS4SX0iQ/OfqOoqSQtMglumVIlPyoOg/xNeSJK8EoeN3Ew6Mpw R+NdDpni25t5kbUI1uwowrfdZB7dj+VAHXatqCWOnNcXAaOE/LHFnDzH0PoPYV5td3Ut5cvPKRuY 9AMAD0FW9a1eXWb9p3+WMfLGn91azqQgqe2tXu7qK3jXLyOFXHrUI611fgix83UJL5x8kAwue7H/ AOtQB21va/2bZRWqKJreNNpU4DAd/Y/j+dZNhrFh4ikmsxamVI937udNy4yeVbqh6/TtWrqMbzWL w+eIPOGxnI52nrtHc4qtFZW1jp21Iks7SIBjPKf3pPcj0P8AnFMZNp2k6dp5YWcTW00hJy7nJ9lb uPauW8X67p82+z+yQXd0vy/ahxsx2BH3up9qqa/4rlv4jZWjOLYcNI4G+Ue/oP1rlCGHCnI9D/Sk IMgnIOaMnqKaSCe6mr+k6ZNqt+sCA7RzI4Gdq+tAGx4T8PnVbsXFwn+iRMMj++fSvTcqFwAAq8AA VTsraGzskgs8GGMY46j6j1qbd04+gPemMmyc89e/tTs9qjB2r1pVOeaAJgcU7d61FuHboOtKD3/K gCUGopZUjRpZDiNOvvS8k7R+J9KqL/pkyuB/o8R+Qf3z3NAE1qjszXMwAlccL/cXsKshvembjSFs cUASbsnmuG8aaz5839kQP+7Q7rlh3PZf8/0rf8RayujaW0qkG4k+SFfVvX6D/D1rzEMxJZ3LuxJZ j1JPU1nUnyo6MNR9pLXZE+6mE0zdUF1dJbQtI5+g9TXIrtnrOSirsjvbsxqIosedIPlGeg9aoTny 0EKEnnLEnOc0se5Fe6mz5snb+7TbWBry7WPn5jlj6DvXXCCijx69Z1ZX6GlotoNn2ph1BVAccD1r YNIqLGiogwqjCj2pa2RgJijFLRTASilxSYpALmjNJRSYDs0uabmjNIRNRRRTNAooooEFJS0lABRQ aQ0wA9aSikNAhaTNFJmgBaM03NGaYDs0ZpuaM0AOzRTc0ZpAMupTFbSOCQcYBHqeKwhGFjbGAzkD OOSTWlqbgrHH3J3dapD5plA6KN3+H9aliHvhVAHYYx6VSlPWrUpxVKU0gKshrvPDcPlaNAMcvlzj 3PH6Yrg2G5sDvxxXptnEILeGFekaBM/QUAXoxjgVZUBQWYgADJJ7VBFx9aUFZ5DvIFtH98noxHr7 Uxj4fNedZ3RfJwTHzyv+1iqEmuvf3TWGjhXfnzbphlIu2R/ePp2+ozWLruvS6nJ9isc+QzbCw4Mx P8I/2a6jw1oiabaKGAMhO6R1H3m/wHb/AOvQI1tNsEtI85d5G5aSQ5Zj6k/5/LitaJVUZ61EigVZ jWgB4H60poz6fnXGr8QbKLUri2u4THBHKyJOnIwD1I6/lQB17uEUknj+dUbm42rukZY1PdjiqkF+ dZj860mVLbPDKQzn+YX+dYHiXVbPRYvJto0l1CQcPJ85jHqSc/gKBkuv+LbfTI/Is5Emu2HAVsqn ucfyrza4uZbud57iRnlc5ZmPWkkxK7PL87Mclm5JJrpvD/hspPb3WoxkwyZMKN6jpu/XFIRP4W8K /bWjvtQQi3+9FEf4/wDaPt6ev4V6IGEaqiADjgdMfWqnmCNAFGSegFWIYiPnk5Y8gelMZMuScknn p6n3qOazgmfzCCk3aWM7WH49/wAakLe9NL4FAFCY3cGd6C5j/vpw4+q9D+FQC4WUMUfcAcMMYIPo R1q88lZt5A7SfabcATKMFT0kHof6UCHGX3qFmLH2qFJllj3pnGcFT1U9waXd2FADy3YcDvUTN2FI zelNJPT86AOE8TReVrcpxgOquPyx/MGseuj8XxAXVvMB95Ch/A//AF6xbGSCK5zcoWhKsHUdTxx+ uKQFzRLiezumnB226jExbpj/ABrY1vTo9TtRqFmA77cnH8Y/xrmrm6afCIojhT7ka9B7n1Naegax 9il+zzN+4kPyk/wn/CgDHileGVZY22upyCOxrsNLmi1ONXLDEYG6Edm/+J9Kzdc0ZlnF1ZpujkPz KvY+o9q0tF0f+zkM0hzO64IHRR6f/Xpga+B1IHFNkkSJGdyAo6k0yedLeIvIcAdvWufu7yS6kJYn Z2TPAoAde3zXcmOREOinv7mqhJJpCaaTx7UAQq2Qfdm/ma6rw1ozblv7qMbcZhVhyf8Aa/w/+tUP hzQBc/6bdDdCGJSLP3uere1dfmgBxNJSDnmkzQMdRmkzSDmgAdBKhRiwB7qxU/mOaY/moqpbRxBR x8xICemABz9MipM0UAKqqgwoAGSTjuc9aVm29OtNZtozTFyzdCSegFAD9wUZJ+agKEj86ZtiDuep +lNeSO2bBHnXB6IDwv1qCQnest25eQ/6tF5/BR/WgDM8UPJeaDPtTy4EKvg9W5xk+nWvOi2eE4XH JPevT9WtpLjRrxpvlURMyQoeMgZ5Pc15iT2pCG4A6fnS5pCaSgB2aWmdOenvQCTyo/E0ASdBnIH1 r0TwlcWzaXFZ2Msaz8tK0o+bceu1ep+tedonOW+Y+9ShiDkHBHTHagD1m/vLDQoftV27STMDs3fM 7n29K851rX7zWZszNthB+SFTwPr6mqE9zNcyGSeV5X6bnYsfzNQE0ABPFRsaViACT0FRAOfmJIJ7 dqAJooXuJVijUs7nAA7mvUNC0c6LZBFKSTOMyhhjJ9Ae1YXhLRjaIupXcDZcfuSBu2j1I612UREi 7o2VgejLzQAg8p5Bt3RT9gflJ9gehpxZ4/8AXJu9WQc/iO/4VM0SOm1lVlPYiojFLEMRN5if3JD/ ACPWmMUMJPmjcSLnt2+o7VJvx8oNVR5UsnBeKb0PDfgehpWkeM4nXd6Mg5/Ed/w/KgC0GycDp3p+ 7A9T2FVY2DruRwyjuP6+lE87QqqJzPIPl/2R6mgAnczSG1ibgH9847ewq0u1UCqMKowPYVWgRIIt i89yx/iPrT9+44zigCYvgZz9KjkmWKF5ZGCoqlmYnAAHU1GW3HOflFcf4y1otjSYGxnDXDDsOy/j SbsrscYuTsjB1rV5Na1NrpsiFfkgT0X1x6nr/wDqqlnHFMHTgYFGeK45S5nc9mlTVOHKhWkWNGdj hQOTWOGbUbvzXGIY+invTb66e8nW3hPyZ6561O4W3t1hQHkc/wBa3pwtqzgxVfnfJHYZPL5j4Gdq 9MVv6VZm1tdz/wCskwxHPyjHA/nWVpNl9puN8iZhjznI4J9K6U/5xWyOSw2kxTqKoBuKSnmkoAbR S4oxQISjFLiikAmKMUtFIRLRRRTLCiiigBKKKSmAUlFFABSUUlAhKKKKYCUUUUAFFJRmgYtFNzSS SCOJnOOBnk0AZlw/m3jnptO0fhUcJyGf+8ePp2qJiRGx/ibpz3NWABHGFHYYrMkhlPWqUpq1K3Wq chzQBLpkP2jVbaPGQZAT9Byf5V6RGcnPp3rhPDEe/VjIf+WaEj69P612bTFdqoN0jHCj+tAFzcZH 8iM8kfOw/hH+NYOp3o1GdrK3cpY2+VcDjzJAeQfVRVjU7w2Vt9jtn3Xc/wB5h1UdC39BVPTNMN9d RWEeREoDynBGUz0z6t/jUyfRDXc1vC+j+dI2oSqSp4hDLtIXu3Pr/L613EUe1cAAemKhtbdIYUjQ AKgwABgVdRc1aVtBEka561OBjgU1RgYHWnDjvzQBT1i9Gm6PeXbEL5UTMCf72OB+eK8HO6Z/McHG eAa9M+I2pGOwi06M485g0mO4HQV5v/n6UgLFneXNjMJbWd4XB6qcfnUdxPLczvNM5eRzlmPeo91J QB1fhHQI75v7QuWV4o2+SEHJYju3p/n0rsb4hriyiAy28vj0ABH9RXk9veT2Ugmt53icfxKcfnXX eHPFVzcagPtllNdSsAqtCuSo9x+NAHdwQBPnflyPyFSk4pSeMkHJ65qNmzTGBao3ekL1GWoEIxqF jTmaoi1ICldwMshuYBl8YdP74/xqFZFkQPGSVPr1B9DV8tWbcwtFI1xAucj97EP4/ce9MB5PYdaR mwMD8aiEyNH5isDGR1P9ayLi9F7cLBG0gi5UvH/ePQ+460DSvqQ+KAk+mLKjBvLkGSDnAPX+lchX S6lZT2ljIjKNki87TwSOeffiuZU7gCO/ekOStsWbOymvbgRQJlu5PQfWka0uFujbGM+cDt2Y611+ gJANKieJAGfO49yQa0PKi87z9g87GN+OcU7EkOmW81pp8cM8nmMo/L0FTTzx28RkkbgdPekmnSCI ySHA7e9c9dXb3Uu5+FH3V9KYDrq6e6k3vwo+6vpVUninM2aYaQATjr+tdHoGgeftvb1P3WcxxN/H 7n2qv4f0c3cy3Vwg+zIeAf4z6D2FdoM9+v8AKgCN7dHbepMcg/jTg0wySJxcR+Yo/wCWkY5/EVYz SZoGR8Ou+Jg6+q9vwpucfWh7dd++NjHJ/eX/AAppkZOLiLP/AE1jH8xQA4Gl3DGO9N2llDxuJE9V P+cU0HNAEgOaQsAMk/T3puffgdaGVUXzbg7Y/wCFB1b2oAERpW3E7VHUntSfaHk/dWg2qT80uOT/ ALtMkL3AzLiK3UZ2E8Af7RpoLXKhI8x2+OX6M/09BQAsZCM0VsBJJn53blUPv/eNWIbdYiXYl5D9 526n6elCbIkCIoVAOgpGlHX8qAHXOJbeSPj50K/TivH3+Vip7GvWw244HJ9K8pv08vUbmMc7ZWAx 06mkIg57fnSAk/dGfftShAeWOfYdBT8Y+lADNvduSKd1paSgBwOKduqPNLmgB5NNJpM0maAI5D84 3cKOnpW94X0ZdVv983/HvCQXGeXPYVi8U6FpIJRJDI0bg5DKcUAezLtRAeFUD6ACq9monuGvAoSP G1MDBYeprgrTxdf7Ft74Ce3yPMZeHI9M9PzrttO17TdRVUtplRsACJ/lb6Af4Uxmtn1ozUZf8MUb yPrQA6SNJVKugYYqsySx8Rt5qf3HPI+h/wAamLYGBSBsc/lQBW/dyv8AKXimHUH5W/wNMG6GaR5s yO/WQAZH4f4VZlRJFw6gjtmq7CWP7reag/hfqPo3+NAEqyblzGQ657dvqO1G7jaD9TVUGOWTKFo5 e4PDf4GleZodxnxtA+aRRgge4/woAh1nVk0jTnnPzP8AdjT+8x6V5sXklkeSVi80jFnY9yat61qh 1fUGlUn7NF8sI9R3b8f8Ko5rnqyvoj0MJSsudj88f0rM1O8KAwRn5j98jt7VPe3gto8Dl2GFHp71 l2UBuJvNfJUHJz3NKlC+rHiq9lyRLVlALeEzOMMR6dKTDTzYA+ZyABT7iQM21fur+prT0KzBY3bj 7pxHn9TXQeaatnai0tI4hjIHzEdz3/z9KnpcUVRYlFGKMUCCkpaKAEopcUmKAEopcUuKRI3FGKdR ikIdRRSVRYUUUlMApKU0lABSUGimAGkopKBAaSiigApKWkoGFJRSUALVTUZNsKoDyx/QVcFY+oMJ rwgsSsY24zwT3pS2EVXmQOoJLKpy20E8/hU6zxTKTG4OOo6EfhTo1Axxx6VFcW8cjbzxIOjrwR+N QIjkNVJO9Pd5oyRKPNT+8vDD8O9REhxmNgw9h/OgDf8ADQEUNxO3QsFHv7fqK6BrhbSCS5nPzBck D+Eeg96xdEiKWEbuvUllH171MZBfXnOTb27ZJ6bpR6ewpN2Vx2AFxuvbhQ1zMQsaHqM/dQf5/lXe aDpP9nWW18NPId8r5P3iOgz2HQfSsXw3Yte3n9puw8iI7bYB8hm5DMR+g59fWuyQdBg0RXVgyRFO elWkAA/pUKAKKsouB/tGqEPHFRvIFHXjuaJJAgwD9apSyknrQM828e3Jl8RCLPCRLjnpmuXJq94g uP7Q1u7nDZzIQh9hwP0pNP0bVNTb/RrXemeZSdqj8aQilnHNSwWs9222CJn9cDiuz0zwJIDvvZIW P90ZIH8v512FnpdpYhSiZZRhSwHH0A4FAHGaL4BMoW41d2RTgrbxnBP+8f6Cu3tbO006Hy7S3jhX 0RRz9T3qYsOpqB5Nx46Uxj2fPTpUTPTC3vUbNzQA8tUZamFqaWoEKzVEzUM1Rs1AAzVXmnSJSzuF wM8mns1c3PJ9v1OSEqAv3RzypHcf4UmNK5FczPfXRS1DLC7fMB/EfX2rVtbSKxg3sAXUElsdPpSQ Qw2MO4tjA5fufpVRrvzZFuJX8uFT8qjPzfh3FCQ3K+iLMEj6h5oljU2rAqoP8XvXAzWUlvqUtsil lVyoJ9PU139u5hn2SzLudflQdBjGMU+WwtZPOJiG6U/Mw659qYkyrpdsllYLGsm/PzE+pqee5igX dK2AegxyayWnk0efyZ8vG5+THf6f1qpNO9xIZHPP8h6UJg1bYkurp7qTe/AH3V9Kr5pM0h9KBCk1 saLopv2E9wCtsp6d3I7D2pujaM98wnmUrag9O7n0FdggVFCoAqqMAAcYoAljVEUKgCoowqjgAU7N MDUu6gY/NJnFN3Ypu6gCTdSE5FM3Um6gBjQBX3xOY37len4igzjOLlNh/wCesfI/EdqkRTI2B+JP aozMSTFZgE5w8x6D6etADmeODAT9/KeUVemPUmo3IhxPdPvlb7ir/JRUsMEdum1ByepPU1BNAyzG 4hKmQjBV+Qfp3FADQrzsHnHyg5SEHhfr6mpDJt7/AFqsbpd22UGGTPRvun6Gop5xGMyOFB6Z7/Qd 6ALEk/OAfxBqKS5SNwrktIeRGvLH6+lUfNmm+5mGP1P32/wqWEJCMIOT1Pc0AXUWScfvz5cR/wCW UZ6/U159rcKwa1dxooVRISAB68130cnpxXF+JUxrkrf31U/pj+lAGPinBacBTttIRGR7U01LjvUZ FADDSUtNoAWikpaAFFOAptWrWyurx9ttBJIfVV4H1PagCEUuSOQeR6dq6Wy8G3UhDXcqQr/dX5m/ wrobLw3ptmM+T5zf3pfm/TpQBz2h6tr4KpBC93D6SjgfRv8AGu5ikcxK8ibHI5QHOPxpFUAAAAAd AB0pSc80xikknr1pc/l2pmaM9qAHFsmmk0hIxyeO59KzL7xBpWnqTPeRbh/Ah3N+Q/rQBpSRpKuH UN9e1ch4t1SSFRpUEpkLrmU55Rewz71FdfEKFcizsnb0eVwuPwGa4ue9uryeSeWQ+ZI25iKTvbQc Wr67FstGvO4JjgAnFRm9iU8kt7qP8apeWWPJJ9zThFjmslSXU6Xi5fZRXlia6mzk7ie9XiFtrcIg AOOKIlVDk49aryOXbJ/AVqcrd3dktpbPeXKwIcZ5LY6Dua69EWKJY0GFUYAqho1j9lt/MlTE8nUk cgen9a08UxobRS4oxTGJSUtFACUUtFADaKdRQITFJinUUhMbilxS0YpCCkooqygpKKKAEoopDTAD SUtNoEFJRRQAUUUnegYUlFFACd6cBSU4UAIzBEZm6KMn8Oa5oXIZtzpJknJOzrXQXqSPZSiLO7HA HU88isaHaVDKQQR1qWSEd3Azbd2G9CMU+TJ7H8O9PeON4iJEDLWZBCHjLMzmMsdiFzgCpAdLKgbG 8EjsvJquImnnjWFCkhbhs8/p/jU7KFGFUAdgBWhpcKwwzX8oOxFOPp0/UkD8aALszyW8MdnFIHkd Aq8fMq929PpVvT9Mmvbq30+MukQGZHXGY0Hf6k8D6n0psCNFHJczKxmc5KqdxHPyqPU8/iTXZaFp n9nWzNIAbqZt8p9PRQfQD+p71HxPyK2Rs20KQRJDEoVEUKqqMAAVbQYGSKroR61Yi5IJ6dh61oSW YgTyR9BUjyBBgHnuajeVIBtZh5jDgdWP0A5P4VCyTSD5E2DnDy/z2g5/MigY15Cx4yfXFZl5eIsJ VZfmc7EZQSoY9Mkcda0mtEb/AFxaUHPyv90c5+6OP89aztYPzWcY7zbsDvhSaAMXTPCWn2n724Ju 5OpMn3B9B/jXSwxqAAAFUdFHQVGi52gD6CrAAC4B4HU+tADwcfQfrSM9ML9ug7Cq80uOhoAdJNk4 BqIvmoy3/wBekLgUAPZqjLU0vgZqMt3oEPLUwvUZamFu9ADy1RlqaWqGWUKvGCTwKAJHcAZPSsO/ tWuJPtFv8ky85H+etV9a8QRWn7uPEk3Zew9zR4evJ7qwknnfc3mkKMdBilYabTuXLS7TUY/LnGLi M7ivqR3FRTfupUklXzJeiRr0+tJfWTO/2m3O2defl71NY3aX2CyhbhOqnt7igbS3RNZ2xjzLKd0r c8nO2pbm6jtYd78k/dX1ptzdR2sO9uSfuL3aufnnkuZTLIck9vQUySpqc8lzeQSuSSW/AcinZ/lU N6MeSRjIfvUi5xjv3pD6DuvStfQtH/tGTz5Ti2jbBAPLH0qHSdIk1ObJylup+d/X2FdvBFFbwrFE gSNBgKO1MREbMRc2h8nj7gGUP4U0T7DtuE8puzDlD+Pb8at0jAEEEAgjnNAxmCBnseh9aTeOtQPb tDk2r7B3jY5U/wCFM+0gNslUxP2DH5T9DQBZL00uaiJIPNLntQBJup3yqhklYLGBkk1DJIlvgv8A NIfuxjvQkLyuJbnBI+7GOi/40AO/eXa4+aK39B95/rVpVVFARQAPSmg+9BNACs1QO9OZqryPigCK dlcFWAYY71Q8qGNtypz2yc4qeVzVZ2oAUuaVWNQ5yakBxwKALKOa5jxIh/tJG7GIfzNdIvvWH4mA 3Wz+zD+VAGGop1C9OBRSEMaomqRm7VGEeRtkaMzeijJoAiJpK2bTw1fXJUybYEPXdycfSuhsfCun Q/NOGuG/2uB+VAHEwW890+y3ieR/RBmuhsfBt/Pg3TpbqecH5m/Tiu3giit4wkKKiDoFUAVNkdBT GYtl4T0u0wXjNy2fvSnj8ulbSokaBERVUcAKMAUdBRmgA/GjNUbzWNO0/IuryGNgOULZb8hzXPXX j+xjfy7S3lnbsWOxT/n6UAdfTJZooE3zSpGo/idgBXmV3411m5JETpbKe0a8/mc/pWHPNcXcnmXE 0krn+KRixoA9MvPGejWjFVna4YdoVyPzPFc5efEC9lbbZ2sUK+r/ADt/QfzrlFiPpUiw0hFi91fU 9TJ+13cki/3M4X8hxVMRH0qwsYFSKmB0oAgEHrTxGFHSpjTCaAE20EACjNWYdPup+kRRT1L/AC9v zoAz7jf0UfKRzVjRrI3l2GYDyoiGf39BitiDRYlAM7tI3dR8oP8AWtKGGKCPZEiovcAdf8adh2JM UYpaKYxuKMU7FJigBMUmKdikxQMTFJinYooAbiinUlIQlFLSUiQopaSgBKKKSrKCkpaKAEpDS0UA JSUtFMQ00lLSUAJRS0negYlFFLigQtKBQBTgKAACufiCBmKDahPyg9hW9MxjgkcdVUkflWHGMDtU sGQ30hMaQIfnmOPoO5ocBVCqMKowKSL97dSzkfKv7uP29TRIakREkJuJ1iXv19hV2a/giuoreOEz +SRtjVeXfH9Ppzk+gq/oWjXF3C00beVv+US55UeoA6n06evbB7HR/D+naQubaBTL/FNJy5/H/DAo sBkeH9E1W6uE1DU44Y0X5obdwTsbjDkA9fYnvXax2MxX57xl/wCucaj+YNPhUYyasqcsMUJW2AZH pysvzXN0x/veaR/LAp0dmY5Dsu7pkwQfMmJH4d6mLEnYgyxHPt9aqpb6jNfENDHDaqR87TszOOc/ KuAO3f8A+sxmhbRqmfKQAH7zkctjvnqT9amcAVFJbxeWyqXUkYB3k4/WqP215S0BOJkPzkdx2IoA uHkZrG1IF9SswoGUV2wfwH9a0FkCHbzsx3/nWddMH1sAH7sA/Vj/AIUAWUGFIB57n0pWcY46Dp71 EZAfkH3e5qF5u/5CgCSSXA6/Wq2/ceetRPJubGeBQG55oAl3YFMLZpjPk4/OmF88CgQ9mz3phbNM ZuMCmFqQDy1MZxjJppPaq80wVdx6ds+tMCR5McscZ/QVy+ua95JaC2YGZuCQc7B6fWotV11pm+yW GXkJw0g9fb/Gs21shE2ZcNITyTzipckhpXM6aCRI/MkJDMeATyfeuv8ADo2aHFx952P61zWrEb40 xhsEk/U112mxeTplrHgjEeSPrz/WiOquDL6881j6yUtGW7gYrMpBwvGR6mr1zeLAuBy5HArBvWaW CQuSWIySe9Uwi2mSS3L3Unmu2WYZwOgFN9qggP7mMjug/lRNP5XyoC0jdAKBDLs7vLjB+YuCQPTm tfSNJk1ObnKW6n55PX2HvUGh6JJqEzO5IjB/eS/+yiu8hiit4VihQJGowFHagYsMUdvCsUKBI0GF Ap9FFAC5pCaQnFRs1ACs2KryKsgKuoYHrmnM1J/CWY4UdSaAK6xSxEC3bcv/ADykPH4HtSrdliY4 Yj5w4bd0T8e9L5j3OUhzHCesndvpU0cSRIFRcAfrQAQQCMl2JeRvvOetT5pmaM9qAJQ1BNMB4oJo Aa7VVlbrVhzxmqcrcE0AVpGqs7c4qSV+9Vy3rQA8Hb70jSrH8zyKvsT/AEqpdF/L3KxAB+YA9RUE nlRrlEB4+91P50hF46tEnSN5Pf7orK1q6mubeKQhEAbgDkjj1qCWcybmbO1FzjHWs+HU476dLeRC uW4IPB/ClcaQ1SezMz9snrWrbabcXSBwoRSOrH+lTwGKFcRooPQ4q5asYpMZ+STlfZvSmIZDodvG QZmaRu46CtSCOG2XEMaJ7KMUzJ61DNeQWwzPOkfpuPWmM00kx3q1G+a5CbxXZQgiJZJmHTAwD+J5 /Ssy58XajMpWAJAvYqMn8z/hQB6SZljTfIwVR3JwKy7zxbo9kdjXXnNjlYRu/XpXmdxeXd4c3NxL L6bnJqIRk0XEdnefEByxWxslUdnmb+g/xrnbvxFq97kS3soU/wAEZ2D6YFURFUixCkBX2Mx5J9/e neQWHHDDkH0NWxHjtS4AoArxqJVyRhwcOPf1p6ximn91cqf4JBtb69qnA/lQAm3inYH40cCnRwzT nEUbN79vz6UAMoJAHOPatGDSGYAzvtz1Vf8AGr8NlbQ8rGC3qwyadh2MWK0uZ/uRkKSPmbgGrkOj DrPLn1CD+prWxS0WHYhitoYB+7iVeMZxyfxqeilFMYU4UmKUUCFooooAKKKKACjFFFACYoxS0UAN opaSkISijvS0hCUUppKQhtFLSVoWJRS0lACUUtFACUhpaKBDaSnYpCKYDaKXFGKAExSgUuKXFABi lxS4pwFICjqbBbJgQfmIAx+f9Kx5pPJt2cDkDgD1rU1djthj4wzFj+HT+dZL/vLqKLsp3t9B0/U1 LBj44/Jt0j7gc+571LY2UmoXqQIDgnLnHRe5pr9f8811/h/TPsdoJXUefKAzEjlR2FIRs2kCQwpE gwqgAe+K0YUyaghT07VbGFGB1PWmBOPQfpU6ZLbExvIzz2HqagjRiQEGW9+g9zWlDEIx656k9/c0 DHQQiNcZznkk9SakZtoprOAKrySgd6AI70yyWsyQSeXKyEI3ocdawNMh1G305TqGz7ZExCuH3F1z 37ZrVnulRcnPPQDvVB5WLbnPPZey/wD16ALLzgrnpkZwap3CTxSfa4AJMriSEjG4Z4IPrzTkbe4B /Gpi3egCst1HLAJIXLKTg56g+hHaonl7ZqO6tyJmubbCzEfOh+7J9feoEnSaPemQAcMh6ofQ0AWA 1KX9Kg34pN/egRMX2jFR7iPrUW8dT+FJvNICUvSbsd+aj3c1n6pqsGnW7PK/PYD7zH0FMCzdXkdt E0kjhUX7zH+lcjd6lc65OYLUmO3B+Zz3Hv8A4U0Ld67MJ7tmhth92NRj6Y/xrUjjjhjWONQqgcAV lOpbRDSK1rZx2cWxOW7sRyasJAsh3NwR0qKWXb6BRySax9Q1gzx+TbblU/fb+99Pas0nJlbEGpOs moBUKsqgLuVsg/5zXYXdyICsUeCwUD2XiuUsNNLHzJxj0BrYJycnJJ6k10JWViBXcuxZjlj1qC4Y LA+e4xx71JmmtyMUwKcc3l20ap8ztkKPxPNW9M0yS7vhGXUFwC8rdF68f4VLo+jS3c/lx9uZJCOE Fd3b2FtbWgtkiBj77uSx9SaBjoYUtoUgiQJGgwAKkzVfyZrf/UN5kf8AzykPT6HtTop45W2jMcne NuD+HrQBPmk3Uwtg80hfmgBS1RM+aazFjtX9KjeYRN5aL5k5/h/u+5oAezpCvmSnr0UdT7VGI3uW DTfLGD8sQ/rSxwYfzJW8yU9+w+lTFvegBwAHAAA7AdqUnFM3YHNN3DqTQBIWwKF55qHdzmnb/SgC bNGah8zPemvLjgUAOlfPfiqM0mT7CnSy9hVKSTPNADZHyc1XZ8mld/eoj1oAeDnjGfaqwUBmhPTO 5T6j0qSSaOFd0rog9WOKzLvW7NCvlu0jqeNo4/M0hC3UUhfEQI98UxLN13P5USsf4tuDVKbxDcOC IYo4wehI3EVnTXVzcn99M7e2ePypWTHdo6SO50+0TbPcqzD+Fcsaq3XiOMxeXa2xHPys56fgKwQl PWKmIs3WuajOMmdlUfwR/Ln+tVHBch9xYOMgk5+tSiKmxx+TP5R/1chyvs1ADRGaesR9Ks+WBxSg YoAhWEd6lVAKdiigBCB2pQKOKcMs21QWPoBmgBD6YptW4tOnlwz4jU9j1q5FpkCAFwZDx97p+VOw 7GLJBJcxlIo2ZsjBA6H69qvw6ZPIAZmEeRyOpz/KtcKBwAAPanYosOxVisLeIfc3HGMtzVujFKBT AKKXFGKBhS4oooAAKdSUtAC0tJS0CCiiigAooooAKKKKACiig0gEpDS0lAgooopCEooopCEoxS0l aFBSUtFACUlOpKBiGkp2KTFACUmKWigQmKMU6gCgLCYpcUuKXFAwApaMU4ClcDC1Nw1/tAIKIAfq ef61RtPnMs3947V+gp+ozP5ty5OWLlFP44FWbGzad47ZOMABjjgDvUkmloemtcXK3MqnykOV5xub /DrXZQJnqRx1zVG0hSGNUjUKqjgCtKP5R+FMC0rBV4Gcfzp8ZO4YByTwKzZ71Y7iG2Vd0su48E4R B1Zj29B6kgcZzWxbx7TvYYYjseFHYUAX7dFiX+f1qRpccn8KrGUAZ/Kq0txmgZYluepzVC4u9vA5 Y9BmqlzebflVvmx1/uise71SGzx5jHzHwFQfeYnj8KTaQ4xcnZGs0pJyTlsdfT6VCZhvwPxqCSbb wMZPp2pYFy2D+JpiNCLhMnqaHk96jZwBgVEz98/SgB7OfxrPuoWEnn2+BKB8y9nHpVgvj8ajL0CK 6TrMm5ARg4ZT1U+ho8zP0qG5jYSefAAJB95ezCo45llj3pxg4ZT1U0gLW7Jp26oA+BnI6d65+/12 S6n+waXlmb78/YD2/wAaALus6+lgPItwZrpuAq9j71k22mSTTm71FjJMeFQnhefaptP06Oyjy5Es 7HLO3PPtV7P/ANesZ1L6IpIOpwB9BiiZktomklcKgGST2ptxeW2nw+ZM3XoAMk/SuVubq51a8DAH b0VR91BUxhcbY+91CW/kCQoVjJ4UDlvrV2x01Yv3sy5k6gZ4FS2VhHaru6uRyxq7/kV0JJbEDenS kJpSaYTTAXNWtP0+bUrjyohhRy7noopNP0+bUrjyoxhR99z0UV21paQ2VusEC4Uck9yfU0ALZ2kN lbrDAuFHJPcn1JqekzjimlhmgY+oLiOKVcOoJ7EcEfQ0ryBepqu83U57flQBGzzQDkmeMf8AfY/x pUmScZjce+eq/UU15AieZKwVR0z3qnIv2pw7L5aD7uPvN9TQBaacyfurUjb/ABSnp+FOhjSBMKOv JJ6k+9RK4RQMAADtSGbv+lAFrzO9MMuO9VTN71E02T1oAtGamGeqTTVGZfegDQ+0UecfWs8Sd6c0 yxrukdVUDkscCgDQ84betRvL781h3HiSwg6SNMw7Rjj8+lZNx4rnfIt7dY/9pzuNIR1bMWOPzrOu 9TtLbiWdQf7o5I/AVx9xqN7d586dyp6gHaPyqsE9vyp3A6GbxJFuZYIWZlGcucCsybWb6fgP5a+i DH61QZGjxKgyV6j1HepxGDgr90j5T7UgIjvdiXYknqSaNlWVhp4ixQBXEftUghqwsYHanYFAEIi5 qTYFFPAoNACYGOBUVzHuhJH3l5U/SpsgU0uKAGxsJI1cdCKceKLOxuZFYKhVCxIZuODWjDpKdZZC TkcLwP8AGnYDNzlsAZJ6AVYjsbmUA7PLBHV+P0rZjhjiGI0VB7Cn45zRYdihFpcKDMhMjY5BOBV1 I0jGERVHsKdilxTHYTFGKdijFAxMUuKMUuKAExS4pcUuKAEopaKADFGKKWgAFLSYpaAFHWiiigQU UUUAFFFFABRRRQAUlLSUgCkpaSkSFFFBoASiiikIKKXFJWgwpKWkoGFFFFACUUUUAGKMUUooGJil xS4oxQACjFLilxSAAKSR1iieRvuopY/Qc06qeqSeXp8pDBS2FGe+Tz+maAOZA8y5jQ9Ix5je56D9 a6rRPKity7sdznOApPFYGkWpu7nv+8fk+ij/ACa9EtIgiKqqAAOmKkkghuY88R3B+kJqS4vxbwtI ba6OOANgGT2A984rRyEX0rLVDqF+JpU/0aBv3XzH5j0LEce4H/Aj3FDAn0m2kVfNuSxnuCHkBx8i joo9hwPfJPet4tjj061yFx4gZL0qkJa3Q43K2GJ7n0xx/Kte31WO4g8xHDQ93xgqfRhQhmlLNx1r PubrYpPU9hUc10ByoZvTaOv41z+qaslshkc5J+6PX2FDYFxpyepySc1lz6S7alHe+eHHmKzIw6Ad hWbbeIDJcAPHtUnjHNbqzCUgg/L2qLKRpCpOk7x6ltW3MWbPNXofkTJ+8f0qhEQWHoOtWvMrQzJy 2ajL/wD1qjL1GW75oAezHrUTSHNMeTNN5pCH5JPWqtwhjP2iEfMB8y9mFT+1ISO/SmBxl1q761eG xRzbwEkZPVj7/j2rYtraG0iEcSAYGC3dsetctrdq+na07J8qs29CK6LTbwXtqrE/MuA/OSTjrWVS 5US4WrNvNUjsgpYb5GPypnHHqTTdT1RLf9zCwMxHJB+7WPZ2Mt6PMuGbbnqx5aphC+rBsAtxqt4Z HZihPJ7KPQVtW1rFaoFRR9TT0RI0CIMKBwB2pd1bWJHk0hbNRl+1JuPrTAfnrV7TdLl1GRsNsiX7 zkZGfQVY0vRXuCk9z8kGchP4m/wrp4wkSBI0VVHRVGAKAFtbaKyt1ggXCjqTySe5J9am3YqIvt61 E0wHU0DLDSenWonmC9aqvcAc5qq8xkJwfxoAsyTktgc+lRS3QgIGN8x6KO1UJLwklLft1k9PpUaM IxxlmPVj3pCLgJLebO2+TsOy/SnGbPU/jVEzHPWm+bnvQBdMuenSmGUdjVRpQoyxAX1NUbnWrODI M28gfdT5v16U7gapl7CozJ71zU/iN23CCDb6M7ZP5VnSaneXMjRyzMCVyoXgH2wKQHWT31vb/wCt mVfYnn8qzZ/EcCcQRNIfU/KK5sLk804R0AaE2vX0uQrLEvbaOaoySTTtmWR3PqxzThH7U8R+1AEA TinCOrAj9qlWH1oArLF7VIIvarIQCkwKAI1jGORUcCmKR4G6D50+lWelQXA2SRTD+E4P0NAEwAxx S44zSbhnFIzigB/SkJpI0ll/1aM3v2/OrMenO3MjhenC8mnYCqzjpT44ppuY42I9TwK0orOGIcIG brluTVj8vaiwFCPS8jMsnbov+NXYraGE5SJcg9TyakpwpjAdMUtJTqBgKWjtRQAtGKBS0DDFLiii gAxS4opcUAJilpcUYoASilooASloooEFFFLQAUUUGgAopKKAFopKKAFopKWgApKWkpCENFFFIQUl LSUAFFFJSEPptKaDWgxKSlpKACiiigBDRRRQMWikpaAFpaTtSikAtKKSloGFYviKf/R47WFRJM53 Bf7qgEZP51tVk3QN3qAiTsdgz6UmJlDTfDurzWkc9tfNbyMcBC7KNv1Fd7o9pPZaXBBdXBuJ1B3S Ek5JJPU88dKbYQLFCqqOAAB+FWbmeOCCSSU7Y0Usx9AKBFDXdUWxsnKlS+OQd3Ck46r0JwccjoSO mKzV12KXR1htgodl2kgAbR6YHQ/4VzOq30t9NulOGZt5B/hH8K9AcAfzJ71Tinkt28yNtpxjHqPe ovqM6TmNVUH5m/QVp6NbMjtdglIwNoAPDn3rmLfV4pGInXyWb+NclR17dfT1rqZdTtZ7RLeyI2IO SCCPfkd+ad0Fh1/qIVWCkbRxx/EfQVx+rI88gleUSMPvIo+56Vcv7whhsbpwP8apWjCWcF3AVOgJ 5JrnnUd7rZG0ILZ7lGKQx5UOF3HByeD9a67S5GksYXYD7vQVi3LLLc/Z0RWkk4ZtuSB9a6K2jSJU gUgFV4UHrV0nze9axNTR2uaEXypz1PWpN3FV1an7u5rYyJd2OTUTPngUx5ewpgNADwe1LnsKb7Cl yBwKAFz6UhNNJpAaYGJ4osPtWnGdQTJCc+uR3rkrW7mhgkWKQoSMHHcV6PIA8bKRwRz7VxtnpsVr JLu2ySK20E9BSAjs9O3FJ7gfMBwnv6mtUEKMAD8BTd3r+Z70wvTAkLUwyGoWkqW1glu51iiXcTzz 0A9TQAqbnIVQWZugHet/TdPht5t16AJf4FYfL/8Arqzp9hDYxgkLJMerkfyq47o64fDD0NAFovt6 +nFIZgBknmssh4ObeTCnrGxyv/1qj+2hm2ygxP6HofxoA0nnxyarPc+9VHlOen5VBNcLF975n7L/ AI0gLMswVS7ttWqbyvOMcpD6d2+tUJtRtY333FwryDoicgVQn8Qc4ghz7sf6UAb3mBVwuAB2HaoZ rqKEZllVPqa5ibU7ybgylB6Jx+tVcMxyxJJ6k96AOhm163j4iVpD6gYH61Ql168k4jCxD2GTWcEp 4joASWaeY5lld/qaYEzU4jqQR0AVxH7UksLbN6D5kORVwRU8RD8KAK6KJUWRR8rDOPT1qQRe1Nt1 8maS3P3fvof5irRAoAjEdPCClpcjsaAEwM9KXpSFhTC9AEhIpm6owzO20Ak+gqeOynkwWAQcfeOT QBEXprBpkZFRmJHRRWjFp8SD58yH34H5VbVVUYVQo9AKdgMy20+doVErCM457mrkdjAmMqXPq1Wf SinYQKAAABgegpaKKYCjrRQKWgYopaSlpDFp1Np1AxaKQUtAC0UlLQMWlpop1AC0optOBoEOopM0 ZoAXFGKM0ZoAMUmKWigAooooASiiigApKKKBhRSZozQAtFJS0CFpKKKQgoozRSEFJ3paSkIKSg0l AD6SlNJWoCUUUlAC0hpKKBgKWkpaQBS5pKKAFpaSigY6lzTRSikA2Z/KgdzjgcZ9e1Q6LbbnM543 cL9O9Nv2LiOBT8zt2PatiwhCRqMYAHFAmacYCJ6Vz/iy/NtpywKcPM3IweVHbP1x+tbskixRu7na iKWY+gFee63ctfMbredpflD2yOMfTGM9+KlgZq/N34/nTXyTTlbaop3Dc1IyHAHJq9BPJb6PKUO1 mf5Se/T/AOvVJ15qzIQNLiUj+LI/8epPUZDJctIcsOfY1J9rP2bylQLxyTzmqbHmrFpavdy+Wo+p x0qeSPYfOzZ8P2obdckc5wua6OS2WVVIO2ReVYetV7OBbeFY1+6owPerobFaJWRJDHcbmMco2zjq Oze4pWl4qO6jE6gg7XHIYdRVVJmZ/KkG2Yf+PfSmIthqeOOKrqfzqZTigCQHFGaZnvSbs0wH5pGY KMsQB6mo3lWJdznj+dZd1dmc46IOgoAmu70yMUjJCDv61lswW4b0Zc05pPeqk8mGVvQ4NAEzS1C0 mevSomb3rSsdNaUpLN8sZ529zQAyyspb1iVwqA/M5/pXS28UNpFsiUD1bHLfWoFZI1CIoVR0CjgU hl96ALhm96aZ/eqfme9G/wB6QFozH1qreXcEMJacjZ6Hv7VmX2tR2+Y4f3knqD8o/HvWBNLNcyb5 XLMfXt9KALk3iCdZXSzQpEo/iOT9RmqL3Et2xYzs5PJU9R+FNhXPnEf3gKc1ur84wc8MOtADAvNO CH0pSZov9YplT+8o5H1qxGEkXdGwZfbtQBCI6eI/apxHT1SgCAR1II+OlTBRRkDigBgjpwUCmvMk fBbHsOtR+bJJ/q48D+8xoAsDAGaia4RTgZc+iio/K3HMjl/btT8qi4UAD2FAFeV5BLHOyBFU4PPO DVvNVpsSRsp7jipreGeeGMhGGQMluPxoAdvA5zTDJ6Hr0q9Fp46yuSfReBVqOGOL7iAcde5/GnYD NjtJ5BnbtU92qymnoOZGZvYcCrlFOwDUjSNdqIF+lP8A5dqBRVAKKKUdaKQg9KKKKAFopaSgBaWk FLQMUUtIOtOHWkMKdTadQAtFFFAwpaSigBaWkooAdS02lzQAuaXNNzS0ALmlptLmgBaWm0ZoAdRS ZoJoAQ0UZooGJRRSZoAKKKKAClpKKBC0UlL2pCYUUlLSEFFFFIQlFFFADqSlpK1ASkNLSUAJ3ooo oAKKKKAFopKWkMWikpaACnCm0122xseM44z69qAI4E869eUjhTsTP610FuNqZ9qyrGEKoUdBWjcX EdnbNNLnYgydo5qQMnxPfeXbJZofml+Z/ZQeO3c/+g+9cvtMsMkak7myQAM59B/n1pbi5e6uJJ5D lnbP09h+lNjco4YdjSAzi4H5daXdxWvdWGluzPDNKu47tu4ce3Sqhs4A2Flf6n/9VTcqxU3YGSat X0g+x2ygY45/AD/Gj7FFwDct+Ef/ANetM29rMiXFy6qmWKoeM4x2/CiwjCt7aW5kAjXgHlj0FdTp dgtpAoIUyEZYinWgif5o4SsQ4Vm7/QVcBFNIRKDjpTi9RbsUxnpgPL5qKaFZ16kMOQw6igZNSKPa gCGGVi/lSgLKOh7NVnNMmt1mjweGH3WHUVCkx3GKbAlHQ9mpgWC3rUc1wsKZbr2FVbi9WIMAfnHY VlvOWOScmgCzPdPK2XP0A7VVeUVA0vvULPk9aAJnlJqJg0ilVGSegHrSxxvK21Rk1qW8CQAHgvjr 6UgCysFi/ezhWbHC+nFaBl7ZqsZPejdmgCzvPrSbveoQT1qrcaiseViw79z2FAFya5jt03SNt9B3 NY13qc1zlI8xxn8zVeQvM++RizHuacsf+RQBAI6eI8KT2A5PpTnljjbYMySf3F/qaBbSTYM7YXOf LU8D60ARWYV45SD1lP8A9arQjqN7JF+eA+XIB26GkguiW8qZdsg/WgCwEFQy2iM3mIxjk7Mv9am3 U1moAiiuWD+TcYWTs46NVhnVBlyB9arToJYyCBnHB9KjhVWQO2C2Oc0ATm63f6tWb3PApu2WQfO+ 0ei0u4dqVFklOI0Lc9h0oAQLHGOB+J5pWfaKtxaZI+GlYJ/sjk1bjsYIv+We446tzTsBlxxTS8pG x46ngfnVmPTCeZX79F/xrT7f0oxTsBBFaww42IMj+I8mpaXFFMBKKWjFMBKKKKAFpRSUtIQUvpRR QAUtJS0AFKKSlFAC0UlLQMUUopKWkMdS00U6gBaKSikMWikpaAClpKKYC0tNpc0ALS5ptGaAHZoz SUUAOozSUUAOzRmm5ozQAd6KM0hoGLmkpM0UALSUUZoAUGlptLQIWikopCYtLSUUhAKWiikISkpa bTAkooNBrQBtJS0lACGig0UAFFFJQAtFJRmgBaM0lFADs0x/mdVHTqaXOBkngCi0UySbz3NSwNK3 TYmcc9q57xDfPPMLWJ18qPBYYBy31/z3rV1K/Flakg/vG4QcdfX8P8K5L+dJjIyzD76fitAcMuVO afUTpk5Thv50gFppPemh9xxjDdx60E+9AB7mtXTtN8zE9wPl6qh/i96bpliHAuJQCv8AAvr7mtjd 2H6UASZ4wKM0wGlzQA4tTetJT1WgByipQAKYMAUx5cUwJWkA71k6jdIylU5kXkMO1R3N8S22MnHc 1j3V8IvlU7n/AJUAWDMZBvJznqfeoml96pW05YMrH5s5qbk0gHbixqaCB5TkcLnkmlgtySGf7vp6 1dBCqABgCgCSNUiXCDHr707dUWTThQA8E0rSpGuWP4Cq8s+07U5b+VVzljljn60APmuZJeF+VPQV CEqQKe1Qz3SQfKvzynotADnaOFd0jbR/OoFae84TMUJ6nuaSO3kmfzbk5PZOwq1uCjHQelABFFHA m1FA9z1NOZwBzULTelV3mPrQBaEoY4qOaJZhg8MOh9KptJ3zU0RnkGI43kx1wucUACTlG8uXr2b1 qbfUy6VcTjEqiPBHJOfyxV2DSYYkUSO0rAdTwKdgMxd8hxGjMcZwBmrFvpVwWbzCI1LcZOT+QraR VRdqAKvYClp2EVIrCCIAsu9s9W7/AIVaACjAGMelLiigBKKKKYBRRRQAlFLRQA2ilooGJRilooAQ UtFLQIPSiiigBaKKKACloFFAxaUUlLSGApw60lKKBi9qM0UUALRSUUgFooooAKWkooAWikzS0AFF FFMBaKKKAFzRmkozQApNJmikoAWikooGLmkoooAKKSigBaWkooEOoptLSEOo7U2nZpCFpKXNJSEJ SUtJTAkpKWkNaAJSUppKAEopKKACkoooAKKKTNAC0ZpKMhRk9B3pARTtwsYPLfyq7bgRx5PpzWdA TNOZD0zwPamarebYPs6kh26n0H1qRlDULxry6Y7iY1OEHbHrVWm5/nSE0gFJpuaKaTQA11DdeCO4 7VNZWzXU5V+FTljjqKiVS8ioPvMcCty3hFtCIwQT/E3qaALIIA2qMKBwB2oFMHNPoAdmnDNNHNSC gByrTsgCmbsVWnuQgJJ4pgSy3AVSSePWsq5uzIcKSF/nUNxcmQnJworKubwv8kZ+XuaLgPurwrlI z83c56VnkknOc+uaDmikA+Btkykng8GtuG2Cjc4yewrnz71fs78wgRzZaPs3daANjJoBOaaCGAYE EHoR3p3Hc0AOBpjy9kP1prPu4HSm5HagAx7UcAZJAHqajkmSFd8jYA6D1qsTLe53HZF2A70APkum mYx2w+r+lEVukI3E5fuxo3RwrsjFRmRnYAck9AKAJ2nA4H51A8p7mrEGmXUxBKeWp5y/GPw61owa NbxFWlJlYdiMDr6U7AYQEkzbYkZ2xnCjNXotDuJOZXWIEdPvHr+Vb6IkaBUUKo7AYFOp2FcowaTa w5OzzWPeTn8h0q6FCjAAAA4GKdijFMBuKMU7FJigBKSlxRQAlFLSUAFFFFACUUtGKAEopaSgAooo oAKSlooASl9KKKACiiigBaKSnUAFFJS0DFoopRSGLS00UtAxaKKKAClpKKAFopM0uaADNLSUUALR SUUALRSUZoGLRRmigQtFJRmkAtFJmjNMBaM0maDQAUpptFABS02loAWikzS5oEFKDSZozSEOzRmm 0A0hD80mabmjNADs0UmaM0AS02lzSE1oAGmmimk0ALmkJpM0hNAC5optFAC5opM0uaQC5qteS7Yw i9X/AJVY/HHrWa0nnXBf+EcD6UmwJ0dYYST0A596x5pXmlMkn3j14xU95PvIiB4Xrz1NUz0qRimm 5yc0H0pCcUAGaaaQmrFnB5knmOMKp496ALdhB5Seaw+dxwD/AAirwHeol5OalU9qAJB6U4CmqKcD 2H40APHpQXApjOAPaqc90EBA5btTAmnuRGOevYetZM9wXy7thR+lMnnCqXkb/PtWVNO07c5Cjoop ASXF00x2rwg/Wq+KUD1NLjHNADcUwn0pxJZtq1NHCF7ZNAESRd2qbywalCU9Y6AGW88lm2CC0B6j 0rREokXcpyvbFV1jB4Iz7VGEe1JeMFo/4k9PpQBcyTxjPtVee6ETbEG+Q+namq9xeN5drGQvcjt9 TV220UqMyvtJ6hRk/nTsBmKg3eZOdz/3c8VaS3u7r7kRCcYJ+Uc1tQWNvbkMkfzY+83JqwAKLAZc OjIOZpS3TheB71oQW8Vuu2JFUd8f41KBS4piDFOxRijFMQUUuKXFIBMUYpaKAG0UuKMUAJSYpTR+ FMBuKKdSYoGJSUtFACUUtJQAUUUUAFJS0UAJRRRQAUlFFAC0fjSUUALS9qTtS0DClpKWkMWlpKWg YtFFFABRRRQAtFJRQAtFFFABRmiigAopKKBi0UUUAFLSUlADqKTNGaBC0maM0maAFpaTNJmgBaKM 0lAC0UlFAC5ozSUZoELmjNNzRmgQ/NFNzS5pCHZozTc0UALmiijNAEtITQTTc1YATTSaWm0AGaaa U02gYuaM0maSgQuaM0lGQOSaQEN1Lti2j7z8fSqbN5EBcHnoM561O+ZZt4Hyjpms24lEkmV+6BgZ qGMiLEkkkknnmmk0U080AFNY80pNMzk8dTQA6OMyuFHTv9K04gAoRPujpVaJPLTH8R6mrMfHAoAs A9hUien51Avp+ZqTcMcGmBPu9Onems/aoTJ2FVJrk8qh46E0ATT3QXIQ/N69hWbPcLEuWOSeg9aZ PcrFkDl+w9PrWczM7bmJJNIBZJHmbLn6D0pAtKqE9KeSsQyeTQA0gKMk4pgDzthRhfWpY4HnO9+F HQVcSEKMAYoAgjgCLgD8TUojqbZ7U4JjnFAEax+1PWOrcNnJN91cL6mr8WnxxnLnzD+QosFzOhtn l+4vHqelXorCNf8AWfMfaruMDAGB6CkxVWFcaiIi7UUKB0AGKWlxRimAlLijFLigAApcUYpcUgAU tGOKXFAhMUuKWigQlJTqKAG0UtGKAEpMUtFADTRTqSgYmKTFLQaYDaKWigYmKSnGkoASkpaSgAoo pKACig0lAC0UlLTGL2paTtRSAWnUlLSGhR1oFJTqBhRRRQAUUUUAFFFFABRRRQAUZopKAFopKM0D FopM0ZoAXNJmjNJmgBc0UZpKAHUlJRQAuaM0lFAC0ZpKKAFopKKBC5pM0GkoELmjNJRQIXNGaTNG aBDs0uabmlzQA7NJSZpc0CJaSlppqhgaaTS0lADaDTqbQA2ilpKQCZrM1C9NtKF4bK/KvQe+a0+9 YGoMbq74b5FGFx6etJgM/tC4n+UbUXGDtH+NRZeMf3lx+IqRYgowppDxwakYgcMuVOf6UGo2XnKn a36fjQHJO0jDfzoAUmpYV2jeec9BimxpvOTwo7+tTdTnFAD09T1qZWqAHFG/PTpQBZD+h470hlGP QCqrSgd6haQv3wBQBYecvwv3f51Snutnyx8v3PpUct0eUiP1aqwUnnB5/WgA5Y5JP1PepUiLc9BU sduAN0nGO1NkkaV/KhGfU0ANkkEfyJy1SQWhY75Rk+npU9vZrHy4y3qathMUAQhOwpwXHSr0FjLL zjavq39K0IbKKHnG5v7zf4U7CuZcNjLL0TA9WFaENhFFyw8xvU9BVzFFArjaTFLiimIaaKdSYoGJ ijFLijFACYpcUtGKBiYpcUtFABiloFA60CCilpKACg0UUAFJS0UCEpDTqKAG0GiigBKSnGmmgYUl LSUwCkNLSUDEooooATFGKKKAG0UtJTAKWkFLQMUUUdqWkAooFFL6UhiigUUtAwooooAKKKKACiii gAooooAKSg0UDCiiigApKKKACiiigAoopKAFopKKAFopKKAClpKKBC0hoooAKDSGkzTELRRRQIKK KKBADTs02loAWjNJ2paQiakpaSqGJSUtFACUGlxSYoAbijFOxSEUAUtQn+z2rMM5Y7QR2/yKwUbJ J756Vpa+xVYVydp3cfl/9esmM5GffNQxlosEUk9hUIPyl36t90e1NZt7KpPyjk0b/wDlo34CkA9u OD+VVpW5yOo6GrCHCksevWqsnJJHTNAF+CVJYVCduoPY1IayYpGhkDqfqPWtMSLIgZT8vf2oAC2a jZ8UjvjgVBI+0Zbn0HrQA9n/AImOBVaWYyHavyr/ADqUwOwDznavZB1NNgt2kbA+VR1NAEUcRdwq jJ/lV1IUhTc/3vWpH8q0j9/bvUMUEl44Z87ewA60AM/eXj7U+WMdTV6C2SEbUHJ79zWhb6W4QZxE o6Dqa0obWKEfKuW7k807CuZ8NhLLy3yL79fyrQis4YgCE3H1bmp6U0CuN5pKdSUxCUUtGKAG4oxS 0UANxSU7FGKAG0uKMUUFBRRRQMKKKWgAoHWiigBaSiigQUUUUAFFLSUCCg0UhoAKSlooEJSYpaKA EptONJQMSkNL2opgNopaSgYlFLSUAFJilooAMUUUCgYUvailoGFLSU4daQwpaQUtABRRRQAUUUUA FFFFABRRRQAlFFFAwoooNACUUUUAFFFIaACiig0wDNJmiigAzRSUUALRSUUhC0ZpKKYC0lFJmgQt FGaM0CCiij8aBCiikpc0ALRSUv40AT0UppKYCUYp2KMUANxRinYpMUhDcUmPWn4oxigDmfEDEX0a Enb5YIHvk/4VQUgKMmtrxDa77eO5UD92cNgc4Pf8/wCdc+T8uM9aljQ/ecem45/ClQ7m9hUJJ3HP 0FLvzwPxpDJnfe2F6d6Thht7d6jLY+VfzqRQAOaAIXQocHH4UQzNE+AflPUVJIu9DUca/Nk/hQBp RWsk2WBVQo3MzdAPWnC3jgXzVZZdw4cA5/IgH9KjhvpoSR97I6E84pDJJfy7QGbIwAvb3o1AUK91 KTJkKpxinyTbWEUCGSU/dVRmtGHS2KbXcovoDya0be1hthiFAuTyR1P1NOwrmNaaLNK5lvDt5+6D k1uQ28UAxGgHv3qQU7FOwrgKdigCnYoENxRinYpKAExSU6kxQAlJTsUlACUUtJigBKKWkoGJRS0l AwooooGFFFFAwooooAKKKKBBRRRQAUtJRQIKKTvRQAUlLSUCCiiigBKQ0tJQAUlLSUAJRS0mKYxK SlpKACiil7UDEpaKKACloooGApaO1FIYvaiiigYtFFFAgooooAKKKKACkNLSUAFFFJQMWkoopgFF FFIApKWkoAKSlpO9MApKWkoAKSlpKAClzSUUCFzSUlFAC9qKTNGaBC0UmaKBC0UgpaBC+lFGaKAC iiigC1ijFOxRimITFGKXFLikA3FGKdijFAhuKQipMU0igCCeBLiCSGQfK6kH2964u4ge3naFwQys c59q7msjVdKe6dZ4CokAwwPGffPrSY0cwQefekUGp7m1ntpNs8JT0J6H6HoahBG7ofyqShVXvTx7 mmFj7de9LnPXnnqe1ADjlun3f5063tpbmTZEpJHU+lX7DSZLjEku5IiMjHVvp6VvxRRwxqkahVA4 AFNILmdb6PEFHnZY47E1ctbGC0LNEnzN3bkgegNWcUoFOxNwxTwKQClFMQ4CnAU0U8UgFApaUUUA JSU6g0CG0lOooAbSU7FJQMSkpaKAG0UppKBoQ0lONJQUJRS0lAwoFFL2oGFJS0UgEopaKBCUUGig AoNFFMQlFFFABSUtJQAUlLSUCCkpaSgANJRRTAKDSUUAJRRRQAUUUUAFFFLQMKKKKBi9qKO1FIYt FJS9qBi0UUUCClFJS0AFFFFACUlLRQAhpKU0lABRRRQMKKKKAENFFFMANJRRQAhooooADSUUUAFF FFAhKKO9FAgooooAKKKSmIXNFJRQA6ikzRSELS5pKKAL+KMUuKXFAhuKXFLiikIMUYpcUYoAbikI p5ptADKaRTyKaaAI2VXQqwypByCKzZ9Cspm3BWjOSTsbr+ea1KbQBlR6DZRtlhJJkYwzf4Yq7Faw Qf6qFEOMZCjOPrU5ptA7hRilxRigAxSigClpiFpRSU6kAop4popwoAdRmm0tAhaKSloAMUYpaSgB MUlOpKBiU2nU2gBKKWm0FIDSUtJQMSiiigoKM0dqKADNGaKKACiiigBaMUlLmkAlFFFMQlFFFACU UUUABpKWkNMBKKKSgQUUUUAIaSlpKACiiigQUUUUDCloooGFLSUvagYUUUUhhS0lLQIKWiloAKKK WgBKKWigBKKKKAG0U6mmgYmKKWkoAKKKKAEooooASijvRTASiiigBKKKKACiikoEFFFFAgooooAK SlpKYgooooAKKKKAFozSUUAamKWiipICiiigAopaQ9aAEptPppoENNNNOppoGhhpDTqaaAGmiiig AoopaACiiloAWlFJSigBwpaSloAXNFJSigQUtJS0AFLSUtABmkNKaSgaEpppxpKBiU2nGmmgpBSU tJQNCUUGigYUUUlABRRRQAUUUUAFFFFABRmikoAWigUlABRRSUxBRRSGgApKU0lABSUUUwCkzSmm mgBaKKKAClpKWkAUCkpR1oAKXtR3opDCiiigYUtJS0ALSigdaB1oELS0lFAC0lLSUAFJS0h60AFJ S0lAxKDS0lACUUppKACkIpaSgBMUhp1NPWmAUUUUAJRRRQAUlLSd6BBRRRQIKKKKAEooopiClFJS 0hBRRRQAYoxRRTA//9k= "
       height="575.09637"
       width="708.57141" />
  </g>
  <g
     inkscape:groupmode="layer"
     id="layer2"
     inkscape:label="plane">
    <path
       style="fill:none;stroke:#ffe900;stroke-width:6.0999999;stroke-linecap:butt;stroke-linejoin:miter;stroke-miterlimit:4;stroke-opacity:1;stroke-dasharray:none"
       d="M 332,774.36218 -7.3786797,956.12564"
       id="l22"
       inkscape:connector-curvature="0"
       sodipodi:nodetypes="cc"
       inkscape:label="#path3859">
      <animate
         attributeType="CSS"
         attributeName="opacity"
         dur="1s"
         keyTimes="0;0.4;0.5;0.8;1"
         values="1;0;1;0;0"
         calcMode="discrete"
         begin="0s"
         repeatCount="indefinite"
         id="animate24" />
    </path>
    <path
       style="fill:none;stroke:#ff1800;stroke-width:1px;stroke-linecap:butt;stroke-linejoin:miter;stroke-opacity:1;filter:url(#filter3033)"
       d="M 325,780.86218 0.22792207,949.93325"
       id="l2"
       inkscape:connector-curvature="0"
       sodipodi:nodetypes="cc"
       inkscape:label="#path3031">
      <animate
         attributeType="CSS"
         attributeName="opacity"
         dur="1s"
         keyTimes="0;0.4;0.5;0.8;1"
         values="1;0;1;0;0"
         calcMode="discrete"
         begin="0s"
         repeatCount="indefinite"
         id="animate27" />
    </path>
    <path
       style="fill:none;stroke:#ffffff;stroke-width:1px;stroke-linecap:butt;stroke-linejoin:miter;stroke-opacity:1"
       d="m 120,135.36218 c 203.95283,51.39934 319.45699,-3.4104 543,20"
       id="path3914"
       inkscape:connector-curvature="0"
       sodipodi:nodetypes="cc" />
    <path
       style="fill:none;stroke:#ffffff;stroke-width:1px;stroke-linecap:butt;stroke-linejoin:miter;stroke-opacity:1"
       d="m 138.59293,168.47871 c 263.85312,-1.09696 331.52216,40.20341 472.34733,5.65685"
       id="path3903"
       inkscape:connector-curvature="0"
       sodipodi:nodetypes="cc" />
    <path
       style="fill:none;stroke:#ffffff;stroke-width:1px;stroke-linecap:butt;stroke-linejoin:miter;stroke-opacity:1"
       d="m 162.63456,251.91731 c 391.42619,4.62865 445.40797,34.62336 541.22958,19.72791"
       id="path3898"
       inkscape:connector-curvature="0"
       sodipodi:nodetypes="cc" />
    <path
       style="fill:none;stroke:#ffff00;stroke-width:6.2;stroke-linecap:butt;stroke-linejoin:miter;stroke-opacity:1;stroke-miterlimit:4;stroke-dasharray:none"
       d="m 72,801.36218 -89,48"
       id="l11"
       inkscape:connector-curvature="0"
       inkscape:label="#path3861">
      <animate
         attributeType="CSS"
         attributeName="opacity"
         dur="1s"
         keyTimes="0;0.4;0.5;0.8;1"
         values="1;0;1;0;0"
         calcMode="discrete"
         begin="0s"
         repeatCount="indefinite"
         id="animate33" />
    </path>
    <path
       style="fill:#00ff00;stroke:#ff0400;stroke-width:1px;stroke-linecap:butt;stroke-linejoin:miter;stroke-opacity:1;filter:url(#filter3077)"
       d="m 73.414214,798.60482 -87.242641,51.22183"
       id="l1"
       inkscape:connector-curvature="0"
       sodipodi:nodetypes="cc"
       inkscape:label="#path3029">
      <animate
         attributeType="CSS"
         attributeName="opacity"
         dur="1s"
         keyTimes="0;0.4;0.5;0.8;1"
         values="1;0;1;0;0"
         calcMode="discrete"
         begin="0s"
         repeatCount="indefinite"
         id="animate36" />
    </path>
    <path
       style="font-size:medium;font-style:normal;font-variant:normal;font-weight:normal;font-stretch:normal;text-indent:0;text-align:start;text-decoration:none;line-height:normal;letter-spacing:normal;word-spacing:normal;text-transform:none;direction:ltr;block-progression:tb;writing-mode:lr-tb;text-anchor:start;baseline-shift:baseline;color:#000000;fill:#0e0029;fill-opacity:1;stroke:none;stroke-width:1px;marker:none;visibility:visible;display:inline;overflow:visible;enable-background:accumulate;font-family:Sans;-inkscape-font-specification:Sans"
       d="m 195.9917,480.22575 c -15.82791,68.33838 -56.11059,117.66559 -125.886213,322.67035 -5.582972,28.05844 15.54607,57.37861 39.342163,48.89213 219.19539,-77.45667 501.72523,-199.6106 528.0954,-208.36176 L 706.86331,499.15136 C 641.28861,509.20014 630.93394,611.5452 606.02664,623.11802 330.29309,751.23366 341.0561,777.67142 110.73906,838.51015 91.799272,843.19321 80.477832,839.91058 80.32186,807.69686 137.674,588.54871 187.71871,552.0095 253.96695,405.93878 l 9.72369,-124.27338 c -68.71683,17.99189 -52.24861,126.39757 -67.69894,198.56035 z"
       id="path3005"
       inkscape:connector-curvature="0"
       sodipodi:nodetypes="cccccsccccc" />
    <path
       style="font-size:medium;font-style:normal;font-variant:normal;font-weight:normal;font-stretch:normal;text-indent:0;text-align:start;text-decoration:none;line-height:normal;letter-spacing:normal;word-spacing:normal;text-transform:none;direction:ltr;block-progression:tb;writing-mode:lr-tb;text-anchor:start;baseline-shift:baseline;color:#000000;fill:#000000;fill-opacity:1;stroke:none;stroke-width:1px;marker:none;visibility:visible;display:inline;overflow:visible;enable-background:accumulate;font-family:Sans;-inkscape-font-specification:Sans"
       d="M 457.40318,374.52392 378.25,486.67341 C 188.02108,657.07671 175.26189,595.91864 103.87505,792.09375 l 3.67218,1.59191 C 173.3168,668.49984 278.65581,580.61643 379.96691,493.78742 c 20.04754,-16.6124 54.74946,-41.47591 70.67321,-53.67289 -0.33798,-11.26735 7.10077,-54.32327 6.76306,-65.59061 z"
       id="path3007"
       inkscape:connector-curvature="0"
       sodipodi:nodetypes="ccccccc" />
    <path
       style="font-size:medium;font-style:normal;font-variant:normal;font-weight:normal;font-stretch:normal;text-indent:0;text-align:start;text-decoration:none;line-height:normal;letter-spacing:normal;word-spacing:normal;text-transform:none;direction:ltr;block-progression:tb;writing-mode:lr-tb;text-anchor:start;baseline-shift:baseline;color:#000000;fill:#000000;fill-opacity:1;stroke:none;stroke-width:1px;marker:none;visibility:visible;display:inline;overflow:visible;enable-background:accumulate;font-family:Sans;-inkscape-font-specification:Sans"
       d="m 333.5,766.0625 c 3.65307,8.02736 6.41914,22.50321 -2.65625,25.0625 -9.44135,2.6625 -24.24301,1.09066 -28.375,-11.96875 l -2.6875,1.15625 c 4.28922,12.80116 21.82652,20.75851 34.5,18 11.50182,-2.50348 14.33813,-22.23554 7.7187,-36.375 -3.46523,-0.41649 -5.18389,0.81857 -8.49995,4.125 z"
       id="path3017"
       inkscape:connector-curvature="0"
       sodipodi:nodetypes="csccscc" />
    <path
       style="font-size:medium;font-style:normal;font-variant:normal;font-weight:normal;font-stretch:normal;text-indent:0;text-align:start;text-decoration:none;line-height:normal;letter-spacing:normal;word-spacing:normal;text-transform:none;direction:ltr;block-progression:tb;writing-mode:lr-tb;text-anchor:start;baseline-shift:baseline;color:#000000;fill:#000000;fill-opacity:1;stroke:none;stroke-width:1px;marker:none;visibility:visible;display:inline;overflow:visible;enable-background:accumulate;font-family:Sans;-inkscape-font-specification:Sans"
       d="m 334.5,794.27329 1.82583,3.27443 c 26.91666,-14.79167 79.46738,-46.07684 74.92417,-48.76647 -2.48901,-1.47352 -22.43352,22.08899 -76.75,45.49204 z"
       id="path3023"
       inkscape:connector-curvature="0"
       sodipodi:nodetypes="ccsc" />
    <path
       style="font-size:medium;font-style:normal;font-variant:normal;font-weight:normal;font-stretch:normal;text-indent:0;text-align:start;text-decoration:none;line-height:normal;letter-spacing:normal;word-spacing:normal;text-transform:none;direction:ltr;block-progression:tb;writing-mode:lr-tb;text-anchor:start;baseline-shift:baseline;color:#000000;fill:#000000;fill-opacity:1;stroke:none;stroke-width:10;marker:none;visibility:visible;display:inline;overflow:visible;enable-background:accumulate;font-family:Sans;-inkscape-font-specification:Sans"
       d="m 19.407626,197.0901 c 9.812602,11.63468 15.484555,1.9083 13.804006,-7.91417 C 24.644007,139.10006 56.686701,59.105746 71.52186,54.796931 130.55288,37.651581 415.68622,72.21326 681.31033,26.283373 c 2.8286,-0.4891 2.90845,-8.913584 0.0538,-8.611534 C 343.53482,53.417535 90.70314,-1.7339013 51.895587,22.907962 -4.6960249,58.842268 14.538432,161.3854 19.407626,197.0901 z"
       id="path3850"
       inkscape:connector-curvature="0"
       sodipodi:nodetypes="csssssc" />
    <path
       style="font-size:medium;font-style:normal;font-variant:normal;font-weight:normal;font-stretch:normal;text-indent:0;text-align:start;text-decoration:none;line-height:normal;letter-spacing:normal;word-spacing:normal;text-transform:none;direction:ltr;block-progression:tb;writing-mode:lr-tb;text-anchor:start;baseline-shift:baseline;color:#000000;fill:#000000;fill-opacity:1;stroke:none;stroke-width:10;marker:none;visibility:visible;display:inline;overflow:visible;enable-background:accumulate;font-family:Sans;-inkscape-font-specification:Sans"
       d="m 726.74476,853.5202 c -9.60164,-11.38455 -15.15169,-1.86727 -13.50728,7.74404 8.38343,48.99935 -22.97039,127.27397 -37.48663,131.49016 -57.76198,16.7768 -336.7656,-17.04192 -596.679388,27.9005 -2.767788,0.4787 -2.845926,8.722 -0.05266,8.4264 330.566753,-34.97716 577.963133,18.9886 615.936413,-5.1235 55.37497,-35.16177 36.55409,-135.50046 31.78955,-170.4376 z"
       id="path3850-3"
       inkscape:connector-curvature="0"
       sodipodi:nodetypes="csssssc" />
    <text
       xml:space="preserve"
       style="font-size:48px;font-style:normal;font-weight:normal;line-height:125%;letter-spacing:0px;word-spacing:0px;fill:#000000;fill-opacity:1;stroke:none;font-family:Sans"
       id="text3890"
       sodipodi:linespacing="125%"
       transform="translate(0,-10)"><textPath
         xlink:href="#path3914"
         id="textPath3917"><tspan
   style="font-size:64px"
   id="tspan3892">Team Luminosity</tspan></textPath></text>
    <text
       xml:space="preserve"
       style="font-size:48px;font-style:normal;font-weight:normal;line-height:125%;letter-spacing:0px;word-spacing:0px;fill:#000000;fill-opacity:1;stroke:none;font-family:Sans"
       id="text3894"
       sodipodi:linespacing="125%"
       transform="translate(25.455844,-19.79899)"><textPath
         xlink:href="#path3898"
         id="textPath3900"><tspan
   id="tspan3896">Bringing (f)light to space!</tspan></textPath></text>
    <path
       style="font-size:medium;font-style:normal;font-variant:normal;font-weight:normal;font-stretch:normal;text-indent:0;text-align:start;text-decoration:none;line-height:normal;letter-spacing:normal;word-spacing:normal;text-transform:none;direction:ltr;block-progression:tb;writing-mode:lr-tb;text-anchor:start;baseline-shift:baseline;color:#000000;fill:#000000;fill-opacity:1;stroke:none;stroke-width:1px;marker:none;visibility:visible;display:inline;overflow:visible;enable-background:accumulate;font-family:Sans;-inkscape-font-specification:Sans"
       d="m 516.34375,163.64216 c -324.36013,44.93017 -479.144943,-49.03021 -460.8125,-7.86091 12.377606,25.94182 151.22093,27.91587 441.44433,18.16807 8.64601,0.0167 13.59213,-5.26957 19.36817,-10.30716 z"
       id="path3908"
       inkscape:connector-curvature="0"
       sodipodi:nodetypes="cccc" />
    <text
       xml:space="preserve"
       style="font-size:48px;font-style:normal;font-weight:normal;line-height:125%;letter-spacing:0px;word-spacing:0px;fill:#000000;fill-opacity:1;stroke:none;font-family:Sans"
       id="text3920"
       sodipodi:linespacing="125%"><textPath
         xlink:href="#path3929"
         id="textPath3931"><tspan
   id="tspan3922">RaoZ &amp; ervion</tspan></textPath></text>
    <path
       style="fill:none;stroke:#ffffff;stroke-width:1px;stroke-linecap:butt;stroke-linejoin:miter;stroke-opacity:1"
       d="m 324.29585,969.18199 c 105.53525,-0.92839 276.74975,-3.98863 325.94383,3.77817"
       id="path3929"
       inkscape:connector-curvature="0"
       sodipodi:nodetypes="cc" />
  </g>
</svg>
